Stray ".ends" card: .ends
Stray ".ends" card: .ends
Stray ".ends" card: .ends
Stray ".ends" card: .ends
Circuit: * Z:\home\alex\electronics\projects\littletube\sims\cathode.asc

WARNING: Node N013 is floating.

Direct Newton iteration for .op point succeeded.

Date: Sat Mar 20 16:32:36 2021
Total elapsed time: 0.289 seconds.

tnom = 27
temp = 27
method = modified trap
totiter = 6930
traniter = 6918
tranpoints = 2853
accept = 2151
rejected = 702
matrix size = 43
fillins = 23
solver = Alternate
Matrix Compiler1: 5.74 KB object code size  3.3/3.3/[2.6]
Matrix Compiler2: 4.71 KB object code size  2.1/2.8/[2.1]


