(kicad_sch (version 20210406) (generator eeschema)

  (uuid cb35757a-f8f1-4dae-9161-90973cc87981)

  (paper "A4")

  (title_block
    (title "Cathode amplifier")
    (company "Alexis Lockwood")
    (comment 1 "CC BY-NC-SA")
    (comment 3 "in all areas. Contact may KILL. System may retain charge.")
    (comment 4 "DANGER! HIGH VOLTAGE in excess of 1000V with lethal current")
  )

  (lib_symbols
    (symbol "Device:C" (pin_numbers hide) (pin_names (offset 0.254)) (in_bom yes) (on_board yes)
      (property "Reference" "C" (id 0) (at 0.635 2.54 0)
        (effects (font (size 1.27 1.27)) (justify left))
      )
      (property "Value" "C" (id 1) (at 0.635 -2.54 0)
        (effects (font (size 1.27 1.27)) (justify left))
      )
      (property "Footprint" "" (id 2) (at 0.9652 -3.81 0)
        (effects (font (size 1.27 1.27)) hide)
      )
      (property "Datasheet" "~" (id 3) (at 0 0 0)
        (effects (font (size 1.27 1.27)) hide)
      )
      (property "ki_keywords" "cap capacitor" (id 4) (at 0 0 0)
        (effects (font (size 1.27 1.27)) hide)
      )
      (property "ki_description" "Unpolarized capacitor" (id 5) (at 0 0 0)
        (effects (font (size 1.27 1.27)) hide)
      )
      (property "ki_fp_filters" "C_*" (id 6) (at 0 0 0)
        (effects (font (size 1.27 1.27)) hide)
      )
      (symbol "C_0_1"
        (polyline
          (pts
            (xy -2.032 -0.762)
            (xy 2.032 -0.762)
          )
          (stroke (width 0.508)) (fill (type none))
        )
        (polyline
          (pts
            (xy -2.032 0.762)
            (xy 2.032 0.762)
          )
          (stroke (width 0.508)) (fill (type none))
        )
      )
      (symbol "C_1_1"
        (pin passive line (at 0 3.81 270) (length 2.794)
          (name "~" (effects (font (size 1.27 1.27))))
          (number "1" (effects (font (size 1.27 1.27))))
        )
        (pin passive line (at 0 -3.81 90) (length 2.794)
          (name "~" (effects (font (size 1.27 1.27))))
          (number "2" (effects (font (size 1.27 1.27))))
        )
      )
    )
    (symbol "Device:D_Schottky" (pin_numbers hide) (pin_names (offset 1.016) hide) (in_bom yes) (on_board yes)
      (property "Reference" "D" (id 0) (at 0 2.54 0)
        (effects (font (size 1.27 1.27)))
      )
      (property "Value" "D_Schottky" (id 1) (at 0 -2.54 0)
        (effects (font (size 1.27 1.27)))
      )
      (property "Footprint" "" (id 2) (at 0 0 0)
        (effects (font (size 1.27 1.27)) hide)
      )
      (property "Datasheet" "~" (id 3) (at 0 0 0)
        (effects (font (size 1.27 1.27)) hide)
      )
      (property "ki_keywords" "diode Schottky" (id 4) (at 0 0 0)
        (effects (font (size 1.27 1.27)) hide)
      )
      (property "ki_description" "Schottky diode" (id 5) (at 0 0 0)
        (effects (font (size 1.27 1.27)) hide)
      )
      (property "ki_fp_filters" "TO-???* *_Diode_* *SingleDiode* D_*" (id 6) (at 0 0 0)
        (effects (font (size 1.27 1.27)) hide)
      )
      (symbol "D_Schottky_0_1"
        (polyline
          (pts
            (xy 1.27 0)
            (xy -1.27 0)
          )
          (stroke (width 0)) (fill (type none))
        )
        (polyline
          (pts
            (xy 1.27 1.27)
            (xy 1.27 -1.27)
            (xy -1.27 0)
            (xy 1.27 1.27)
          )
          (stroke (width 0.254)) (fill (type none))
        )
        (polyline
          (pts
            (xy -1.905 0.635)
            (xy -1.905 1.27)
            (xy -1.27 1.27)
            (xy -1.27 -1.27)
            (xy -0.635 -1.27)
            (xy -0.635 -0.635)
          )
          (stroke (width 0.254)) (fill (type none))
        )
      )
      (symbol "D_Schottky_1_1"
        (pin passive line (at -3.81 0 0) (length 2.54)
          (name "K" (effects (font (size 1.27 1.27))))
          (number "1" (effects (font (size 1.27 1.27))))
        )
        (pin passive line (at 3.81 0 180) (length 2.54)
          (name "A" (effects (font (size 1.27 1.27))))
          (number "2" (effects (font (size 1.27 1.27))))
        )
      )
    )
    (symbol "Device:D_Zener" (pin_numbers hide) (pin_names (offset 1.016) hide) (in_bom yes) (on_board yes)
      (property "Reference" "D" (id 0) (at 0 2.54 0)
        (effects (font (size 1.27 1.27)))
      )
      (property "Value" "D_Zener" (id 1) (at 0 -2.54 0)
        (effects (font (size 1.27 1.27)))
      )
      (property "Footprint" "" (id 2) (at 0 0 0)
        (effects (font (size 1.27 1.27)) hide)
      )
      (property "Datasheet" "~" (id 3) (at 0 0 0)
        (effects (font (size 1.27 1.27)) hide)
      )
      (property "ki_keywords" "diode" (id 4) (at 0 0 0)
        (effects (font (size 1.27 1.27)) hide)
      )
      (property "ki_description" "Zener diode" (id 5) (at 0 0 0)
        (effects (font (size 1.27 1.27)) hide)
      )
      (property "ki_fp_filters" "TO-???* *_Diode_* *SingleDiode* D_*" (id 6) (at 0 0 0)
        (effects (font (size 1.27 1.27)) hide)
      )
      (symbol "D_Zener_0_1"
        (polyline
          (pts
            (xy 1.27 0)
            (xy -1.27 0)
          )
          (stroke (width 0)) (fill (type none))
        )
        (polyline
          (pts
            (xy -1.27 -1.27)
            (xy -1.27 1.27)
            (xy -0.762 1.27)
          )
          (stroke (width 0.254)) (fill (type none))
        )
        (polyline
          (pts
            (xy 1.27 -1.27)
            (xy 1.27 1.27)
            (xy -1.27 0)
            (xy 1.27 -1.27)
          )
          (stroke (width 0.254)) (fill (type none))
        )
      )
      (symbol "D_Zener_1_1"
        (pin passive line (at -3.81 0 0) (length 2.54)
          (name "K" (effects (font (size 1.27 1.27))))
          (number "1" (effects (font (size 1.27 1.27))))
        )
        (pin passive line (at 3.81 0 180) (length 2.54)
          (name "A" (effects (font (size 1.27 1.27))))
          (number "2" (effects (font (size 1.27 1.27))))
        )
      )
    )
    (symbol "Device:L" (pin_numbers hide) (pin_names (offset 1.016) hide) (in_bom yes) (on_board yes)
      (property "Reference" "L" (id 0) (at -1.27 0 90)
        (effects (font (size 1.27 1.27)))
      )
      (property "Value" "L" (id 1) (at 1.905 0 90)
        (effects (font (size 1.27 1.27)))
      )
      (property "Footprint" "" (id 2) (at 0 0 0)
        (effects (font (size 1.27 1.27)) hide)
      )
      (property "Datasheet" "~" (id 3) (at 0 0 0)
        (effects (font (size 1.27 1.27)) hide)
      )
      (property "ki_keywords" "inductor choke coil reactor magnetic" (id 4) (at 0 0 0)
        (effects (font (size 1.27 1.27)) hide)
      )
      (property "ki_description" "Inductor" (id 5) (at 0 0 0)
        (effects (font (size 1.27 1.27)) hide)
      )
      (property "ki_fp_filters" "Choke_* *Coil* Inductor_* L_*" (id 6) (at 0 0 0)
        (effects (font (size 1.27 1.27)) hide)
      )
      (symbol "L_0_1"
        (arc (start 0 -2.54) (end 0 -1.27) (radius (at 0 -1.905) (length 0.635) (angles -89.9 89.9))
          (stroke (width 0)) (fill (type none))
        )
        (arc (start 0 -1.27) (end 0 0) (radius (at 0 -0.635) (length 0.635) (angles -89.9 89.9))
          (stroke (width 0)) (fill (type none))
        )
        (arc (start 0 0) (end 0 1.27) (radius (at 0 0.635) (length 0.635) (angles -89.9 89.9))
          (stroke (width 0)) (fill (type none))
        )
        (arc (start 0 1.27) (end 0 2.54) (radius (at 0 1.905) (length 0.635) (angles -89.9 89.9))
          (stroke (width 0)) (fill (type none))
        )
      )
      (symbol "L_1_1"
        (pin passive line (at 0 3.81 270) (length 1.27)
          (name "1" (effects (font (size 1.27 1.27))))
          (number "1" (effects (font (size 1.27 1.27))))
        )
        (pin passive line (at 0 -3.81 90) (length 1.27)
          (name "2" (effects (font (size 1.27 1.27))))
          (number "2" (effects (font (size 1.27 1.27))))
        )
      )
    )
    (symbol "Device:Q_Dual_NPN_NPN_E1B1C2E2B2C1" (pin_names (offset 0) hide) (in_bom yes) (on_board yes)
      (property "Reference" "Q" (id 0) (at 5.08 1.27 0)
        (effects (font (size 1.27 1.27)) (justify left))
      )
      (property "Value" "Q_Dual_NPN_NPN_E1B1C2E2B2C1" (id 1) (at 5.08 -1.27 0)
        (effects (font (size 1.27 1.27)) (justify left))
      )
      (property "Footprint" "" (id 2) (at 5.08 2.54 0)
        (effects (font (size 1.27 1.27)) hide)
      )
      (property "Datasheet" "~" (id 3) (at 0 0 0)
        (effects (font (size 1.27 1.27)) hide)
      )
      (property "ki_locked" "" (id 4) (at 0 0 0)
        (effects (font (size 1.27 1.27)))
      )
      (property "ki_keywords" "transistor NPN" (id 5) (at 0 0 0)
        (effects (font (size 1.27 1.27)) hide)
      )
      (property "ki_description" "Dual NPN transistor, 6 pin package" (id 6) (at 0 0 0)
        (effects (font (size 1.27 1.27)) hide)
      )
      (property "ki_fp_filters" "SC?70* SC?88* SOT?363* SOT?23*" (id 7) (at 0 0 0)
        (effects (font (size 1.27 1.27)) hide)
      )
      (symbol "Q_Dual_NPN_NPN_E1B1C2E2B2C1_0_1"
        (circle (center 1.27 0) (radius 2.8194) (stroke (width 0.254)) (fill (type none)))
        (polyline
          (pts
            (xy 0.635 0)
            (xy -2.54 0)
          )
          (stroke (width 0)) (fill (type none))
        )
        (polyline
          (pts
            (xy 0.635 0.635)
            (xy 2.54 2.54)
          )
          (stroke (width 0)) (fill (type none))
        )
        (polyline
          (pts
            (xy 0.635 -0.635)
            (xy 2.54 -2.54)
            (xy 2.54 -2.54)
          )
          (stroke (width 0)) (fill (type none))
        )
        (polyline
          (pts
            (xy 0.635 1.905)
            (xy 0.635 -1.905)
            (xy 0.635 -1.905)
          )
          (stroke (width 0.508)) (fill (type none))
        )
        (polyline
          (pts
            (xy 1.27 -1.778)
            (xy 1.778 -1.27)
            (xy 2.286 -2.286)
            (xy 1.27 -1.778)
            (xy 1.27 -1.778)
          )
          (stroke (width 0)) (fill (type outline))
        )
      )
      (symbol "Q_Dual_NPN_NPN_E1B1C2E2B2C1_1_1"
        (pin passive line (at 2.54 -5.08 90) (length 2.54)
          (name "E1" (effects (font (size 1.27 1.27))))
          (number "1" (effects (font (size 1.27 1.27))))
        )
        (pin input line (at -5.08 0 0) (length 2.54)
          (name "B1" (effects (font (size 1.27 1.27))))
          (number "2" (effects (font (size 1.27 1.27))))
        )
        (pin passive line (at 2.54 5.08 270) (length 2.54)
          (name "C1" (effects (font (size 1.27 1.27))))
          (number "6" (effects (font (size 1.27 1.27))))
        )
      )
      (symbol "Q_Dual_NPN_NPN_E1B1C2E2B2C1_2_1"
        (pin passive line (at 2.54 5.08 270) (length 2.54)
          (name "C2" (effects (font (size 1.27 1.27))))
          (number "3" (effects (font (size 1.27 1.27))))
        )
        (pin passive line (at 2.54 -5.08 90) (length 2.54)
          (name "E2" (effects (font (size 1.27 1.27))))
          (number "4" (effects (font (size 1.27 1.27))))
        )
        (pin input line (at -5.08 0 0) (length 2.54)
          (name "B2" (effects (font (size 1.27 1.27))))
          (number "5" (effects (font (size 1.27 1.27))))
        )
      )
    )
    (symbol "Device:R" (pin_numbers hide) (pin_names (offset 0)) (in_bom yes) (on_board yes)
      (property "Reference" "R" (id 0) (at 2.032 0 90)
        (effects (font (size 1.27 1.27)))
      )
      (property "Value" "R" (id 1) (at 0 0 90)
        (effects (font (size 1.27 1.27)))
      )
      (property "Footprint" "" (id 2) (at -1.778 0 90)
        (effects (font (size 1.27 1.27)) hide)
      )
      (property "Datasheet" "~" (id 3) (at 0 0 0)
        (effects (font (size 1.27 1.27)) hide)
      )
      (property "ki_keywords" "R res resistor" (id 4) (at 0 0 0)
        (effects (font (size 1.27 1.27)) hide)
      )
      (property "ki_description" "Resistor" (id 5) (at 0 0 0)
        (effects (font (size 1.27 1.27)) hide)
      )
      (property "ki_fp_filters" "R_*" (id 6) (at 0 0 0)
        (effects (font (size 1.27 1.27)) hide)
      )
      (symbol "R_0_1"
        (rectangle (start -1.016 -2.54) (end 1.016 2.54)
          (stroke (width 0.254)) (fill (type none))
        )
      )
      (symbol "R_1_1"
        (pin passive line (at 0 3.81 270) (length 1.27)
          (name "~" (effects (font (size 1.27 1.27))))
          (number "1" (effects (font (size 1.27 1.27))))
        )
        (pin passive line (at 0 -3.81 90) (length 1.27)
          (name "~" (effects (font (size 1.27 1.27))))
          (number "2" (effects (font (size 1.27 1.27))))
        )
      )
    )
    (symbol "Potentiometer_Digital:MCP4017-xxxxLT" (in_bom yes) (on_board yes)
      (property "Reference" "U" (id 0) (at -7.62 8.89 0)
        (effects (font (size 1.27 1.27)) (justify left))
      )
      (property "Value" "MCP4017-xxxxLT" (id 1) (at 1.27 8.89 0)
        (effects (font (size 1.27 1.27)) (justify left))
      )
      (property "Footprint" "Package_TO_SOT_SMD:SOT-363_SC-70-6" (id 2) (at 1.27 -6.35 0)
        (effects (font (size 1.27 1.27)) (justify left) hide)
      )
      (property "Datasheet" "http://ww1.microchip.com/downloads/en/DeviceDoc/22147a.pdf" (id 3) (at 1.27 -13.97 0)
        (effects (font (size 1.27 1.27)) (justify left) hide)
      )
      (property "ki_keywords" "TWI pot rheostat" (id 4) (at 0 0 0)
        (effects (font (size 1.27 1.27)) hide)
      )
      (property "ki_description" "Low-Cost 128-Step Volatile I2C Digital Potentiometer, SC-70-6" (id 5) (at 0 0 0)
        (effects (font (size 1.27 1.27)) hide)
      )
      (property "ki_fp_filters" "*SC?70*" (id 6) (at 0 0 0)
        (effects (font (size 1.27 1.27)) hide)
      )
      (symbol "MCP4017-xxxxLT_0_0"
        (text "A" (at 3.81 6.35 0)
          (effects (font (size 1.27 1.27)))
        )
        (polyline
          (pts
            (xy 0 5.08)
            (xy 0 6.35)
            (xy 2.54 6.35)
          )
          (stroke (width 0)) (fill (type none))
        )
        (polyline
          (pts
            (xy 5.08 0)
            (xy 2.54 0)
            (xy 2.54 -1.27)
            (xy 0 -1.27)
            (xy 0 0)
          )
          (stroke (width 0)) (fill (type none))
        )
      )
      (symbol "MCP4017-xxxxLT_1_1"
        (rectangle (start 1.016 0) (end -1.016 5.08)
          (stroke (width 0)) (fill (type none))
        )
        (rectangle (start -7.62 7.62) (end 7.62 -5.08)
          (stroke (width 0.254)) (fill (type background))
        )
        (polyline
          (pts
            (xy 5.08 2.54)
            (xy 2.286 2.54)
          )
          (stroke (width 0)) (fill (type none))
        )
        (polyline
          (pts
            (xy 2.286 1.778)
            (xy 2.286 3.302)
            (xy 1.016 2.54)
            (xy 2.286 1.778)
          )
          (stroke (width 0)) (fill (type outline))
        )
        (pin power_in line (at -2.54 10.16 270) (length 2.54)
          (name "VDD" (effects (font (size 1.27 1.27))))
          (number "1" (effects (font (size 1.27 1.27))))
        )
        (pin power_in line (at -2.54 -7.62 90) (length 2.54)
          (name "VSS" (effects (font (size 1.27 1.27))))
          (number "2" (effects (font (size 1.27 1.27))))
        )
        (pin input line (at -10.16 2.54 0) (length 2.54)
          (name "SCL" (effects (font (size 1.27 1.27))))
          (number "3" (effects (font (size 1.27 1.27))))
        )
        (pin bidirectional line (at -10.16 0 0) (length 2.54)
          (name "SDA" (effects (font (size 1.27 1.27))))
          (number "4" (effects (font (size 1.27 1.27))))
        )
        (pin passive line (at 10.16 0 180) (length 2.54)
          (name "B" (effects (font (size 1.27 1.27))))
          (number "5" (effects (font (size 1.27 1.27))))
        )
        (pin passive line (at 10.16 2.54 180) (length 2.54)
          (name "W" (effects (font (size 1.27 1.27))))
          (number "6" (effects (font (size 1.27 1.27))))
        )
      )
    )
    (symbol "Power_Protection:SP0505BAHT" (pin_names hide) (in_bom yes) (on_board yes)
      (property "Reference" "D" (id 0) (at 7.62 2.54 0)
        (effects (font (size 1.27 1.27)) (justify left))
      )
      (property "Value" "SP0505BAHT" (id 1) (at 7.62 0.635 0)
        (effects (font (size 1.27 1.27)) (justify left))
      )
      (property "Footprint" "Package_TO_SOT_SMD:SOT-23-6" (id 2) (at 7.62 -1.27 0)
        (effects (font (size 1.27 1.27)) (justify left) hide)
      )
      (property "Datasheet" "http://www.littelfuse.com/~/media/files/littelfuse/technical%20resources/documents/data%20sheets/sp05xxba.pdf" (id 3) (at 3.175 3.175 0)
        (effects (font (size 1.27 1.27)) hide)
      )
      (property "ki_keywords" "usb esd protection suppression transient" (id 4) (at 0 0 0)
        (effects (font (size 1.27 1.27)) hide)
      )
      (property "ki_description" "TVS Diode Array, 5.5V Standoff, 5 Channels, SOT-23-6 package" (id 5) (at 0 0 0)
        (effects (font (size 1.27 1.27)) hide)
      )
      (property "ki_fp_filters" "SOT?23*" (id 6) (at 0 0 0)
        (effects (font (size 1.27 1.27)) hide)
      )
      (symbol "SP0505BAHT_0_0"
        (pin passive line (at 0 -5.08 90) (length 2.54)
          (name "A" (effects (font (size 1.27 1.27))))
          (number "2" (effects (font (size 1.27 1.27))))
        )
      )
      (symbol "SP0505BAHT_0_1"
        (circle (center -2.54 -1.27) (radius 0.254) (stroke (width 0)) (fill (type outline)))
        (circle (center 0 -1.27) (radius 0.254) (stroke (width 0)) (fill (type outline)))
        (circle (center 2.54 -1.27) (radius 0.254) (stroke (width 0)) (fill (type outline)))
        (rectangle (start -6.985 2.54) (end 6.985 -2.54)
          (stroke (width 0.254)) (fill (type background))
        )
        (polyline
          (pts
            (xy -5.08 2.54)
            (xy -5.08 1.27)
          )
          (stroke (width 0)) (fill (type none))
        )
        (polyline
          (pts
            (xy -2.54 2.54)
            (xy -2.54 1.27)
          )
          (stroke (width 0)) (fill (type none))
        )
        (polyline
          (pts
            (xy 0 -1.27)
            (xy 0 -2.54)
          )
          (stroke (width 0)) (fill (type none))
        )
        (polyline
          (pts
            (xy 0 -1.27)
            (xy 0 1.27)
          )
          (stroke (width 0)) (fill (type none))
        )
        (polyline
          (pts
            (xy 0 2.54)
            (xy 0 1.27)
          )
          (stroke (width 0)) (fill (type none))
        )
        (polyline
          (pts
            (xy 0.635 1.27)
            (xy 0.762 1.27)
          )
          (stroke (width 0)) (fill (type none))
        )
        (polyline
          (pts
            (xy 2.54 2.54)
            (xy 2.54 1.27)
          )
          (stroke (width 0)) (fill (type none))
        )
        (polyline
          (pts
            (xy 5.08 2.54)
            (xy 5.08 1.27)
          )
          (stroke (width 0)) (fill (type none))
        )
        (polyline
          (pts
            (xy -5.08 1.27)
            (xy -5.08 -1.27)
            (xy -2.54 -1.27)
          )
          (stroke (width 0)) (fill (type none))
        )
        (polyline
          (pts
            (xy 0.635 1.27)
            (xy -0.762 1.27)
            (xy -0.762 1.016)
          )
          (stroke (width 0)) (fill (type none))
        )
        (polyline
          (pts
            (xy 5.08 1.27)
            (xy 5.08 -1.27)
            (xy 2.54 -1.27)
          )
          (stroke (width 0)) (fill (type none))
        )
        (polyline
          (pts
            (xy -5.842 1.016)
            (xy -5.842 1.27)
            (xy -4.445 1.27)
            (xy -4.318 1.27)
          )
          (stroke (width 0)) (fill (type none))
        )
        (polyline
          (pts
            (xy -5.08 1.27)
            (xy -4.445 0)
            (xy -5.715 0)
            (xy -5.08 1.27)
          )
          (stroke (width 0)) (fill (type none))
        )
        (polyline
          (pts
            (xy -3.302 1.016)
            (xy -3.302 1.27)
            (xy -1.905 1.27)
            (xy -1.778 1.27)
          )
          (stroke (width 0)) (fill (type none))
        )
        (polyline
          (pts
            (xy -2.54 1.27)
            (xy -2.54 -1.27)
            (xy 2.54 -1.27)
            (xy 2.54 1.27)
          )
          (stroke (width 0)) (fill (type none))
        )
        (polyline
          (pts
            (xy -2.54 1.27)
            (xy -1.905 0)
            (xy -3.175 0)
            (xy -2.54 1.27)
          )
          (stroke (width 0)) (fill (type none))
        )
        (polyline
          (pts
            (xy 0.635 0)
            (xy -0.635 0)
            (xy 0 1.27)
            (xy 0.635 0)
          )
          (stroke (width 0)) (fill (type none))
        )
        (polyline
          (pts
            (xy 1.778 1.016)
            (xy 1.778 1.27)
            (xy 3.175 1.27)
            (xy 3.302 1.27)
          )
          (stroke (width 0)) (fill (type none))
        )
        (polyline
          (pts
            (xy 2.54 1.27)
            (xy 1.905 0)
            (xy 3.175 0)
            (xy 2.54 1.27)
          )
          (stroke (width 0)) (fill (type none))
        )
        (polyline
          (pts
            (xy 4.318 1.016)
            (xy 4.318 1.27)
            (xy 5.715 1.27)
            (xy 5.842 1.27)
          )
          (stroke (width 0)) (fill (type none))
        )
        (polyline
          (pts
            (xy 5.08 1.27)
            (xy 4.445 0)
            (xy 5.715 0)
            (xy 5.08 1.27)
          )
          (stroke (width 0)) (fill (type none))
        )
      )
      (symbol "SP0505BAHT_1_1"
        (pin passive line (at -5.08 5.08 270) (length 2.54)
          (name "K" (effects (font (size 1.27 1.27))))
          (number "1" (effects (font (size 1.27 1.27))))
        )
        (pin passive line (at -2.54 5.08 270) (length 2.54)
          (name "K" (effects (font (size 1.27 1.27))))
          (number "3" (effects (font (size 1.27 1.27))))
        )
        (pin passive line (at 0 5.08 270) (length 2.54)
          (name "K" (effects (font (size 1.27 1.27))))
          (number "4" (effects (font (size 1.27 1.27))))
        )
        (pin passive line (at 2.54 5.08 270) (length 2.54)
          (name "K" (effects (font (size 1.27 1.27))))
          (number "5" (effects (font (size 1.27 1.27))))
        )
        (pin passive line (at 5.08 5.08 270) (length 2.54)
          (name "K" (effects (font (size 1.27 1.27))))
          (number "6" (effects (font (size 1.27 1.27))))
        )
      )
    )
    (symbol "Transistor_BJT:MMBT3906" (pin_names (offset 0) hide) (in_bom yes) (on_board yes)
      (property "Reference" "Q" (id 0) (at 5.08 1.905 0)
        (effects (font (size 1.27 1.27)) (justify left))
      )
      (property "Value" "MMBT3906" (id 1) (at 5.08 0 0)
        (effects (font (size 1.27 1.27)) (justify left))
      )
      (property "Footprint" "Package_TO_SOT_SMD:SOT-23" (id 2) (at 5.08 -1.905 0)
        (effects (font (size 1.27 1.27) italic) (justify left) hide)
      )
      (property "Datasheet" "https://www.onsemi.com/pub/Collateral/2N3906-D.PDF" (id 3) (at 0 0 0)
        (effects (font (size 1.27 1.27)) (justify left) hide)
      )
      (property "ki_keywords" "PNP Transistor" (id 4) (at 0 0 0)
        (effects (font (size 1.27 1.27)) hide)
      )
      (property "ki_description" "-0.2A Ic, -40V Vce, Small Signal PNP Transistor, SOT-23" (id 5) (at 0 0 0)
        (effects (font (size 1.27 1.27)) hide)
      )
      (property "ki_fp_filters" "SOT?23*" (id 6) (at 0 0 0)
        (effects (font (size 1.27 1.27)) hide)
      )
      (symbol "MMBT3906_0_1"
        (circle (center 1.27 0) (radius 2.8194) (stroke (width 0.254)) (fill (type none)))
        (polyline
          (pts
            (xy 0.635 0.635)
            (xy 2.54 2.54)
          )
          (stroke (width 0)) (fill (type none))
        )
        (polyline
          (pts
            (xy 0.635 -0.635)
            (xy 2.54 -2.54)
            (xy 2.54 -2.54)
          )
          (stroke (width 0)) (fill (type none))
        )
        (polyline
          (pts
            (xy 0.635 1.905)
            (xy 0.635 -1.905)
            (xy 0.635 -1.905)
          )
          (stroke (width 0.508)) (fill (type none))
        )
        (polyline
          (pts
            (xy 2.286 -1.778)
            (xy 1.778 -2.286)
            (xy 1.27 -1.27)
            (xy 2.286 -1.778)
            (xy 2.286 -1.778)
          )
          (stroke (width 0)) (fill (type outline))
        )
      )
      (symbol "MMBT3906_1_1"
        (pin input line (at -5.08 0 0) (length 5.715)
          (name "B" (effects (font (size 1.27 1.27))))
          (number "1" (effects (font (size 1.27 1.27))))
        )
        (pin passive line (at 2.54 -5.08 90) (length 2.54)
          (name "E" (effects (font (size 1.27 1.27))))
          (number "2" (effects (font (size 1.27 1.27))))
        )
        (pin passive line (at 2.54 5.08 270) (length 2.54)
          (name "C" (effects (font (size 1.27 1.27))))
          (number "3" (effects (font (size 1.27 1.27))))
        )
      )
    )
    (symbol "Transistor_BJT:MMBTA42" (pin_names (offset 0) hide) (in_bom yes) (on_board yes)
      (property "Reference" "Q" (id 0) (at 5.08 1.905 0)
        (effects (font (size 1.27 1.27)) (justify left))
      )
      (property "Value" "MMBTA42" (id 1) (at 5.08 0 0)
        (effects (font (size 1.27 1.27)) (justify left))
      )
      (property "Footprint" "Package_TO_SOT_SMD:SOT-23" (id 2) (at 5.08 -1.905 0)
        (effects (font (size 1.27 1.27) italic) (justify left) hide)
      )
      (property "Datasheet" "https://www.onsemi.com/pub/Collateral/MMBTA42LT1-D.PDF" (id 3) (at 0 0 0)
        (effects (font (size 1.27 1.27)) (justify left) hide)
      )
      (property "ki_keywords" "NPN High Voltage Transistor" (id 4) (at 0 0 0)
        (effects (font (size 1.27 1.27)) hide)
      )
      (property "ki_description" "0.5A Ic, 300V Vce, NPN High Voltage Transistor, SOT-23" (id 5) (at 0 0 0)
        (effects (font (size 1.27 1.27)) hide)
      )
      (property "ki_fp_filters" "SOT?23*" (id 6) (at 0 0 0)
        (effects (font (size 1.27 1.27)) hide)
      )
      (symbol "MMBTA42_0_1"
        (circle (center 1.27 0) (radius 2.8194) (stroke (width 0.254)) (fill (type none)))
        (polyline
          (pts
            (xy 0 0)
            (xy 0.635 0)
          )
          (stroke (width 0)) (fill (type none))
        )
        (polyline
          (pts
            (xy 0.635 0.635)
            (xy 2.54 2.54)
          )
          (stroke (width 0)) (fill (type none))
        )
        (polyline
          (pts
            (xy 0.635 -0.635)
            (xy 2.54 -2.54)
            (xy 2.54 -2.54)
          )
          (stroke (width 0)) (fill (type none))
        )
        (polyline
          (pts
            (xy 0.635 1.905)
            (xy 0.635 -1.905)
            (xy 0.635 -1.905)
          )
          (stroke (width 0.508)) (fill (type none))
        )
        (polyline
          (pts
            (xy 1.27 -1.778)
            (xy 1.778 -1.27)
            (xy 2.286 -2.286)
            (xy 1.27 -1.778)
            (xy 1.27 -1.778)
          )
          (stroke (width 0)) (fill (type outline))
        )
      )
      (symbol "MMBTA42_1_1"
        (pin input line (at -5.08 0 0) (length 5.08)
          (name "B" (effects (font (size 1.27 1.27))))
          (number "1" (effects (font (size 1.27 1.27))))
        )
        (pin passive line (at 2.54 -5.08 90) (length 2.54)
          (name "E" (effects (font (size 1.27 1.27))))
          (number "2" (effects (font (size 1.27 1.27))))
        )
        (pin passive line (at 2.54 5.08 270) (length 2.54)
          (name "C" (effects (font (size 1.27 1.27))))
          (number "3" (effects (font (size 1.27 1.27))))
        )
      )
    )
    (symbol "os2_symbols:R_QW" (pin_numbers hide) (pin_names (offset 0)) (in_bom yes) (on_board yes)
      (property "Reference" "R" (id 0) (at 2.032 0 90)
        (effects (font (size 1.27 1.27)))
      )
      (property "Value" "R_QW" (id 1) (at 3.81 0 90)
        (effects (font (size 1.27 1.27)))
      )
      (property "Footprint" "" (id 2) (at -1.778 0 90)
        (effects (font (size 1.27 1.27)) hide)
      )
      (property "Datasheet" "~" (id 3) (at 0 0 0)
        (effects (font (size 1.27 1.27)) hide)
      )
      (property "ki_keywords" "R res resistor" (id 4) (at 0 0 0)
        (effects (font (size 1.27 1.27)) hide)
      )
      (property "ki_description" "Resistor, ¼W" (id 5) (at 0 0 0)
        (effects (font (size 1.27 1.27)) hide)
      )
      (property "ki_fp_filters" "R_*" (id 6) (at 0 0 0)
        (effects (font (size 1.27 1.27)) hide)
      )
      (symbol "R_QW_0_1"
        (rectangle (start -1.016 -2.54) (end 1.016 2.54)
          (stroke (width 0.254)) (fill (type none))
        )
        (polyline
          (pts
            (xy -0.762 0.762)
            (xy 0.762 -0.762)
          )
          (stroke (width 0.254)) (fill (type none))
        )
      )
      (symbol "R_QW_1_1"
        (pin passive line (at 0 3.81 270) (length 1.27)
          (name "~" (effects (font (size 1.27 1.27))))
          (number "1" (effects (font (size 1.27 1.27))))
        )
        (pin passive line (at 0 -3.81 90) (length 1.27)
          (name "~" (effects (font (size 1.27 1.27))))
          (number "2" (effects (font (size 1.27 1.27))))
        )
      )
    )
    (symbol "power:+5V" (power) (pin_names (offset 0)) (in_bom yes) (on_board yes)
      (property "Reference" "#PWR" (id 0) (at 0 -3.81 0)
        (effects (font (size 1.27 1.27)) hide)
      )
      (property "Value" "+5V" (id 1) (at 0 3.556 0)
        (effects (font (size 1.27 1.27)))
      )
      (property "Footprint" "" (id 2) (at 0 0 0)
        (effects (font (size 1.27 1.27)) hide)
      )
      (property "Datasheet" "" (id 3) (at 0 0 0)
        (effects (font (size 1.27 1.27)) hide)
      )
      (property "ki_keywords" "power-flag" (id 4) (at 0 0 0)
        (effects (font (size 1.27 1.27)) hide)
      )
      (property "ki_description" "Power symbol creates a global label with name \"+5V\"" (id 5) (at 0 0 0)
        (effects (font (size 1.27 1.27)) hide)
      )
      (symbol "+5V_0_1"
        (polyline
          (pts
            (xy -0.762 1.27)
            (xy 0 2.54)
          )
          (stroke (width 0)) (fill (type none))
        )
        (polyline
          (pts
            (xy 0 0)
            (xy 0 2.54)
          )
          (stroke (width 0)) (fill (type none))
        )
        (polyline
          (pts
            (xy 0 2.54)
            (xy 0.762 1.27)
          )
          (stroke (width 0)) (fill (type none))
        )
      )
      (symbol "+5V_1_1"
        (pin power_in line (at 0 0 90) (length 0) hide
          (name "+5V" (effects (font (size 1.27 1.27))))
          (number "1" (effects (font (size 1.27 1.27))))
        )
      )
    )
    (symbol "power:GND" (power) (pin_names (offset 0)) (in_bom yes) (on_board yes)
      (property "Reference" "#PWR" (id 0) (at 0 -6.35 0)
        (effects (font (size 1.27 1.27)) hide)
      )
      (property "Value" "GND" (id 1) (at 0 -3.81 0)
        (effects (font (size 1.27 1.27)))
      )
      (property "Footprint" "" (id 2) (at 0 0 0)
        (effects (font (size 1.27 1.27)) hide)
      )
      (property "Datasheet" "" (id 3) (at 0 0 0)
        (effects (font (size 1.27 1.27)) hide)
      )
      (property "ki_keywords" "power-flag" (id 4) (at 0 0 0)
        (effects (font (size 1.27 1.27)) hide)
      )
      (property "ki_description" "Power symbol creates a global label with name \"GND\" , ground" (id 5) (at 0 0 0)
        (effects (font (size 1.27 1.27)) hide)
      )
      (symbol "GND_0_1"
        (polyline
          (pts
            (xy 0 0)
            (xy 0 -1.27)
            (xy 1.27 -1.27)
            (xy 0 -2.54)
            (xy -1.27 -1.27)
            (xy 0 -1.27)
          )
          (stroke (width 0)) (fill (type none))
        )
      )
      (symbol "GND_1_1"
        (pin power_in line (at 0 0 270) (length 0) hide
          (name "GND" (effects (font (size 1.27 1.27))))
          (number "1" (effects (font (size 1.27 1.27))))
        )
      )
    )
  )

  (junction (at 36.83 130.81) (diameter 0.9144) (color 0 0 0 0))
  (junction (at 39.37 128.27) (diameter 0.9144) (color 0 0 0 0))
  (junction (at 69.85 114.3) (diameter 0.9144) (color 0 0 0 0))
  (junction (at 80.01 114.3) (diameter 0.9144) (color 0 0 0 0))
  (junction (at 83.82 114.3) (diameter 0.9144) (color 0 0 0 0))
  (junction (at 86.36 54.61) (diameter 1.016) (color 0 0 0 0))
  (junction (at 119.38 57.15) (diameter 0.9144) (color 0 0 0 0))
  (junction (at 119.38 114.3) (diameter 1.016) (color 0 0 0 0))
  (junction (at 121.92 114.3) (diameter 1.016) (color 0 0 0 0))
  (junction (at 130.81 57.15) (diameter 1.016) (color 0 0 0 0))
  (junction (at 130.81 107.95) (diameter 1.016) (color 0 0 0 0))
  (junction (at 130.81 120.65) (diameter 1.016) (color 0 0 0 0))
  (junction (at 135.89 125.73) (diameter 1.016) (color 0 0 0 0))
  (junction (at 146.05 57.15) (diameter 1.016) (color 0 0 0 0))
  (junction (at 146.05 69.85) (diameter 1.016) (color 0 0 0 0))
  (junction (at 146.05 81.28) (diameter 1.016) (color 0 0 0 0))
  (junction (at 146.05 97.79) (diameter 1.016) (color 0 0 0 0))
  (junction (at 151.13 134.62) (diameter 1.016) (color 0 0 0 0))
  (junction (at 156.21 97.79) (diameter 1.016) (color 0 0 0 0))
  (junction (at 166.37 125.73) (diameter 1.016) (color 0 0 0 0))
  (junction (at 170.18 81.28) (diameter 1.016) (color 0 0 0 0))
  (junction (at 170.18 97.79) (diameter 0.9144) (color 0 0 0 0))
  (junction (at 179.07 57.15) (diameter 1.016) (color 0 0 0 0))
  (junction (at 179.07 87.63) (diameter 1.016) (color 0 0 0 0))
  (junction (at 179.07 105.41) (diameter 0.9144) (color 0 0 0 0))
  (junction (at 179.07 119.38) (diameter 1.016) (color 0 0 0 0))
  (junction (at 193.04 73.66) (diameter 0.9144) (color 0 0 0 0))
  (junction (at 200.66 57.15) (diameter 1.016) (color 0 0 0 0))
  (junction (at 200.66 67.31) (diameter 1.016) (color 0 0 0 0))
  (junction (at 209.55 57.15) (diameter 1.016) (color 0 0 0 0))
  (junction (at 209.55 67.31) (diameter 1.016) (color 0 0 0 0))
  (junction (at 212.09 110.49) (diameter 1.016) (color 0 0 0 0))
  (junction (at 212.09 119.38) (diameter 1.016) (color 0 0 0 0))
  (junction (at 222.25 101.6) (diameter 1.016) (color 0 0 0 0))
  (junction (at 222.25 110.49) (diameter 1.016) (color 0 0 0 0))
  (junction (at 233.68 119.38) (diameter 1.016) (color 0 0 0 0))
  (junction (at 241.3 119.38) (diameter 1.016) (color 0 0 0 0))
  (junction (at 254 119.38) (diameter 1.016) (color 0 0 0 0))

  (bus_entry (at 27.94 125.73) (size 2.54 2.54)
    (stroke (width 0.1524) (type solid) (color 0 0 0 0))
    (uuid d52a1dbc-4bf8-4d91-9de7-bcb320f54cc8)
  )
  (bus_entry (at 27.94 128.27) (size 2.54 2.54)
    (stroke (width 0.1524) (type solid) (color 0 0 0 0))
    (uuid d52a1dbc-4bf8-4d91-9de7-bcb320f54cc8)
  )

  (wire (pts (xy 27.94 114.3) (xy 69.85 114.3))
    (stroke (width 0) (type solid) (color 0 0 0 0))
    (uuid 9f92d466-0784-45bc-a574-43a64d458069)
  )
  (wire (pts (xy 30.48 128.27) (xy 39.37 128.27))
    (stroke (width 0) (type solid) (color 0 0 0 0))
    (uuid 9906298f-073c-410b-8c74-57e9234d86da)
  )
  (wire (pts (xy 30.48 130.81) (xy 36.83 130.81))
    (stroke (width 0) (type solid) (color 0 0 0 0))
    (uuid 8c969d68-5dab-4664-80a4-8aa4aae7b89f)
  )
  (wire (pts (xy 36.83 130.81) (xy 36.83 148.59))
    (stroke (width 0) (type solid) (color 0 0 0 0))
    (uuid ad15069e-bb23-49d4-a260-ce710ddad605)
  )
  (wire (pts (xy 36.83 130.81) (xy 48.26 130.81))
    (stroke (width 0) (type solid) (color 0 0 0 0))
    (uuid 8c969d68-5dab-4664-80a4-8aa4aae7b89f)
  )
  (wire (pts (xy 36.83 148.59) (xy 88.9 148.59))
    (stroke (width 0) (type solid) (color 0 0 0 0))
    (uuid d72a8a2e-2c8f-465c-a491-d74458b4ae80)
  )
  (wire (pts (xy 38.1 54.61) (xy 86.36 54.61))
    (stroke (width 0) (type solid) (color 0 0 0 0))
    (uuid 299ecbad-2f12-4960-8c6a-faf08ac41daf)
  )
  (wire (pts (xy 39.37 128.27) (xy 48.26 128.27))
    (stroke (width 0) (type solid) (color 0 0 0 0))
    (uuid 9906298f-073c-410b-8c74-57e9234d86da)
  )
  (wire (pts (xy 39.37 147.32) (xy 39.37 128.27))
    (stroke (width 0) (type solid) (color 0 0 0 0))
    (uuid 91795188-ddfe-479f-95de-3e87446d6f43)
  )
  (wire (pts (xy 68.58 128.27) (xy 69.85 128.27))
    (stroke (width 0) (type solid) (color 0 0 0 0))
    (uuid 6722aa47-096e-4b25-911b-eaf33ceb1443)
  )
  (wire (pts (xy 69.85 114.3) (xy 71.12 114.3))
    (stroke (width 0) (type solid) (color 0 0 0 0))
    (uuid 9f92d466-0784-45bc-a574-43a64d458069)
  )
  (wire (pts (xy 69.85 128.27) (xy 69.85 114.3))
    (stroke (width 0) (type solid) (color 0 0 0 0))
    (uuid 6722aa47-096e-4b25-911b-eaf33ceb1443)
  )
  (wire (pts (xy 78.74 114.3) (xy 80.01 114.3))
    (stroke (width 0) (type solid) (color 0 0 0 0))
    (uuid 9f92d466-0784-45bc-a574-43a64d458069)
  )
  (wire (pts (xy 80.01 114.3) (xy 80.01 130.81))
    (stroke (width 0) (type solid) (color 0 0 0 0))
    (uuid a4f08493-1a62-48c9-adef-7b2c9a33e6e4)
  )
  (wire (pts (xy 80.01 114.3) (xy 83.82 114.3))
    (stroke (width 0) (type solid) (color 0 0 0 0))
    (uuid 9f92d466-0784-45bc-a574-43a64d458069)
  )
  (wire (pts (xy 80.01 130.81) (xy 68.58 130.81))
    (stroke (width 0) (type solid) (color 0 0 0 0))
    (uuid a4f08493-1a62-48c9-adef-7b2c9a33e6e4)
  )
  (wire (pts (xy 83.82 114.3) (xy 119.38 114.3))
    (stroke (width 0) (type solid) (color 0 0 0 0))
    (uuid 9f92d466-0784-45bc-a574-43a64d458069)
  )
  (wire (pts (xy 83.82 149.86) (xy 83.82 114.3))
    (stroke (width 0) (type solid) (color 0 0 0 0))
    (uuid 147e5816-be9c-4fc4-a46e-2280c34bde96)
  )
  (wire (pts (xy 86.36 54.61) (xy 193.04 54.61))
    (stroke (width 0) (type solid) (color 0 0 0 0))
    (uuid 299ecbad-2f12-4960-8c6a-faf08ac41daf)
  )
  (wire (pts (xy 86.36 149.86) (xy 86.36 54.61))
    (stroke (width 0) (type solid) (color 0 0 0 0))
    (uuid decdb8d4-a4b2-43ff-a60d-7cd44022936d)
  )
  (wire (pts (xy 88.9 148.59) (xy 88.9 149.86))
    (stroke (width 0) (type solid) (color 0 0 0 0))
    (uuid d72a8a2e-2c8f-465c-a491-d74458b4ae80)
  )
  (wire (pts (xy 91.44 147.32) (xy 39.37 147.32))
    (stroke (width 0) (type solid) (color 0 0 0 0))
    (uuid 1340e7aa-79ef-4d03-9392-b71d448fd6b7)
  )
  (wire (pts (xy 91.44 149.86) (xy 91.44 147.32))
    (stroke (width 0) (type solid) (color 0 0 0 0))
    (uuid 1340e7aa-79ef-4d03-9392-b71d448fd6b7)
  )
  (wire (pts (xy 111.76 105.41) (xy 109.22 105.41))
    (stroke (width 0) (type solid) (color 0 0 0 0))
    (uuid 7f536c1d-8374-4aef-8aea-64f7e784e942)
  )
  (wire (pts (xy 116.84 57.15) (xy 119.38 57.15))
    (stroke (width 0) (type solid) (color 0 0 0 0))
    (uuid a006f701-be69-4c43-836c-ac6e7d43feae)
  )
  (wire (pts (xy 119.38 57.15) (xy 130.81 57.15))
    (stroke (width 0) (type solid) (color 0 0 0 0))
    (uuid a006f701-be69-4c43-836c-ac6e7d43feae)
  )
  (wire (pts (xy 119.38 58.42) (xy 119.38 57.15))
    (stroke (width 0) (type solid) (color 0 0 0 0))
    (uuid 9e52f45a-79d0-4790-9e0a-7f45c9efd08c)
  )
  (wire (pts (xy 119.38 67.31) (xy 119.38 66.04))
    (stroke (width 0) (type solid) (color 0 0 0 0))
    (uuid a231f256-0014-470c-8be9-4e4bc535af4a)
  )
  (wire (pts (xy 119.38 105.41) (xy 121.92 105.41))
    (stroke (width 0) (type solid) (color 0 0 0 0))
    (uuid 7db42273-14c9-48a5-b860-1ca1aeb26e78)
  )
  (wire (pts (xy 119.38 114.3) (xy 121.92 114.3))
    (stroke (width 0) (type solid) (color 0 0 0 0))
    (uuid 9f92d466-0784-45bc-a574-43a64d458069)
  )
  (wire (pts (xy 119.38 125.73) (xy 119.38 114.3))
    (stroke (width 0) (type solid) (color 0 0 0 0))
    (uuid fa927bca-9f09-4233-855b-0b3bd8eea19b)
  )
  (wire (pts (xy 119.38 125.73) (xy 135.89 125.73))
    (stroke (width 0) (type solid) (color 0 0 0 0))
    (uuid 069423a3-5a4e-46ca-9ee2-5a0eda347c91)
  )
  (wire (pts (xy 121.92 105.41) (xy 121.92 114.3))
    (stroke (width 0) (type solid) (color 0 0 0 0))
    (uuid 29eede9f-69ac-4b84-ba58-004f13aa43c2)
  )
  (wire (pts (xy 121.92 114.3) (xy 123.19 114.3))
    (stroke (width 0) (type solid) (color 0 0 0 0))
    (uuid 9f92d466-0784-45bc-a574-43a64d458069)
  )
  (wire (pts (xy 129.54 120.65) (xy 130.81 120.65))
    (stroke (width 0) (type solid) (color 0 0 0 0))
    (uuid a7b2582b-5da9-426e-a813-071af4a5bbfa)
  )
  (wire (pts (xy 130.81 57.15) (xy 130.81 97.79))
    (stroke (width 0) (type solid) (color 0 0 0 0))
    (uuid e3b7621d-d2f7-44d9-9cc7-f5d60e29f24e)
  )
  (wire (pts (xy 130.81 57.15) (xy 146.05 57.15))
    (stroke (width 0) (type solid) (color 0 0 0 0))
    (uuid a006f701-be69-4c43-836c-ac6e7d43feae)
  )
  (wire (pts (xy 130.81 105.41) (xy 130.81 107.95))
    (stroke (width 0) (type solid) (color 0 0 0 0))
    (uuid 6b82ac8e-93a3-435a-92e7-d8a9aec2b066)
  )
  (wire (pts (xy 130.81 107.95) (xy 130.81 109.22))
    (stroke (width 0) (type solid) (color 0 0 0 0))
    (uuid 6b82ac8e-93a3-435a-92e7-d8a9aec2b066)
  )
  (wire (pts (xy 130.81 107.95) (xy 138.43 107.95))
    (stroke (width 0) (type solid) (color 0 0 0 0))
    (uuid 0528916e-db7f-4fdb-93b3-9bae7d19194a)
  )
  (wire (pts (xy 130.81 119.38) (xy 130.81 120.65))
    (stroke (width 0) (type solid) (color 0 0 0 0))
    (uuid 5b163a92-ee95-4f81-a6bc-a67c082b5fe7)
  )
  (wire (pts (xy 130.81 120.65) (xy 146.05 120.65))
    (stroke (width 0) (type solid) (color 0 0 0 0))
    (uuid 5b163a92-ee95-4f81-a6bc-a67c082b5fe7)
  )
  (wire (pts (xy 135.89 125.73) (xy 135.89 134.62))
    (stroke (width 0) (type solid) (color 0 0 0 0))
    (uuid 0fe4a128-4725-46e1-92d4-270f617494f7)
  )
  (wire (pts (xy 135.89 125.73) (xy 147.32 125.73))
    (stroke (width 0) (type solid) (color 0 0 0 0))
    (uuid 069423a3-5a4e-46ca-9ee2-5a0eda347c91)
  )
  (wire (pts (xy 138.43 134.62) (xy 135.89 134.62))
    (stroke (width 0) (type solid) (color 0 0 0 0))
    (uuid 0fe4a128-4725-46e1-92d4-270f617494f7)
  )
  (wire (pts (xy 146.05 57.15) (xy 146.05 59.69))
    (stroke (width 0) (type solid) (color 0 0 0 0))
    (uuid a006f701-be69-4c43-836c-ac6e7d43feae)
  )
  (wire (pts (xy 146.05 57.15) (xy 179.07 57.15))
    (stroke (width 0) (type solid) (color 0 0 0 0))
    (uuid 7c2d76ea-a648-49f7-a42f-e6f73f86a0fe)
  )
  (wire (pts (xy 146.05 67.31) (xy 146.05 69.85))
    (stroke (width 0) (type solid) (color 0 0 0 0))
    (uuid 5a0a624c-de31-4625-92c5-cdd4bd3cb3b5)
  )
  (wire (pts (xy 146.05 69.85) (xy 146.05 72.39))
    (stroke (width 0) (type solid) (color 0 0 0 0))
    (uuid 5a0a624c-de31-4625-92c5-cdd4bd3cb3b5)
  )
  (wire (pts (xy 146.05 69.85) (xy 156.21 69.85))
    (stroke (width 0) (type solid) (color 0 0 0 0))
    (uuid 4e7658a9-2527-4e9d-9bab-4699d5132168)
  )
  (wire (pts (xy 146.05 80.01) (xy 146.05 81.28))
    (stroke (width 0) (type solid) (color 0 0 0 0))
    (uuid 4f57e599-6f40-4874-be5c-39a8e739259e)
  )
  (wire (pts (xy 146.05 81.28) (xy 146.05 97.79))
    (stroke (width 0) (type solid) (color 0 0 0 0))
    (uuid 4f57e599-6f40-4874-be5c-39a8e739259e)
  )
  (wire (pts (xy 146.05 81.28) (xy 170.18 81.28))
    (stroke (width 0) (type solid) (color 0 0 0 0))
    (uuid b754f3b9-0bd7-4b8b-8fd1-5c702dc4328b)
  )
  (wire (pts (xy 146.05 97.79) (xy 146.05 102.87))
    (stroke (width 0) (type solid) (color 0 0 0 0))
    (uuid 4f57e599-6f40-4874-be5c-39a8e739259e)
  )
  (wire (pts (xy 146.05 97.79) (xy 147.32 97.79))
    (stroke (width 0) (type solid) (color 0 0 0 0))
    (uuid 88251312-cd0b-4c4e-b2e3-4ba13b9c2be0)
  )
  (wire (pts (xy 146.05 113.03) (xy 146.05 120.65))
    (stroke (width 0) (type solid) (color 0 0 0 0))
    (uuid 27a56300-73f5-481b-9e9e-41c10051f61d)
  )
  (wire (pts (xy 151.13 134.62) (xy 146.05 134.62))
    (stroke (width 0) (type solid) (color 0 0 0 0))
    (uuid 0fe4a128-4725-46e1-92d4-270f617494f7)
  )
  (wire (pts (xy 151.13 134.62) (xy 151.13 135.89))
    (stroke (width 0) (type solid) (color 0 0 0 0))
    (uuid 62682769-1ff5-497d-935b-16c1c7b4b6e3)
  )
  (wire (pts (xy 154.94 97.79) (xy 156.21 97.79))
    (stroke (width 0) (type solid) (color 0 0 0 0))
    (uuid ba44848f-1a3f-4d02-ba87-498bfc89a009)
  )
  (wire (pts (xy 154.94 125.73) (xy 166.37 125.73))
    (stroke (width 0) (type solid) (color 0 0 0 0))
    (uuid d523e9cf-9f8e-4793-a9fd-c4c3d370c1ec)
  )
  (wire (pts (xy 156.21 71.12) (xy 156.21 69.85))
    (stroke (width 0) (type solid) (color 0 0 0 0))
    (uuid 4e7658a9-2527-4e9d-9bab-4699d5132168)
  )
  (wire (pts (xy 156.21 78.74) (xy 156.21 97.79))
    (stroke (width 0) (type solid) (color 0 0 0 0))
    (uuid d618fa6e-96f6-4054-b75d-1f50767fa127)
  )
  (wire (pts (xy 156.21 97.79) (xy 170.18 97.79))
    (stroke (width 0) (type solid) (color 0 0 0 0))
    (uuid d618fa6e-96f6-4054-b75d-1f50767fa127)
  )
  (wire (pts (xy 156.21 134.62) (xy 151.13 134.62))
    (stroke (width 0) (type solid) (color 0 0 0 0))
    (uuid 0fe4a128-4725-46e1-92d4-270f617494f7)
  )
  (wire (pts (xy 163.83 134.62) (xy 166.37 134.62))
    (stroke (width 0) (type solid) (color 0 0 0 0))
    (uuid f9470917-b30b-4f63-a7ce-949894f96ae3)
  )
  (wire (pts (xy 166.37 125.73) (xy 166.37 134.62))
    (stroke (width 0) (type solid) (color 0 0 0 0))
    (uuid f9470917-b30b-4f63-a7ce-949894f96ae3)
  )
  (wire (pts (xy 166.37 125.73) (xy 179.07 125.73))
    (stroke (width 0) (type solid) (color 0 0 0 0))
    (uuid d523e9cf-9f8e-4793-a9fd-c4c3d370c1ec)
  )
  (wire (pts (xy 170.18 81.28) (xy 170.18 82.55))
    (stroke (width 0) (type solid) (color 0 0 0 0))
    (uuid e3828aea-2a11-4d5c-8e87-0bdc1b13db42)
  )
  (wire (pts (xy 170.18 81.28) (xy 171.45 81.28))
    (stroke (width 0) (type solid) (color 0 0 0 0))
    (uuid a086537a-5354-42bd-8bf2-ab4f2e5d9e2e)
  )
  (wire (pts (xy 170.18 92.71) (xy 170.18 97.79))
    (stroke (width 0) (type solid) (color 0 0 0 0))
    (uuid 83d44ee1-abfc-4ec1-84c5-c1f05b4ffcd4)
  )
  (wire (pts (xy 170.18 105.41) (xy 170.18 97.79))
    (stroke (width 0) (type solid) (color 0 0 0 0))
    (uuid eea34219-37d5-496f-86cc-9b5d9f963961)
  )
  (wire (pts (xy 177.8 87.63) (xy 179.07 87.63))
    (stroke (width 0) (type solid) (color 0 0 0 0))
    (uuid ad22fa33-9449-4610-8d56-96314df4b6c1)
  )
  (wire (pts (xy 179.07 76.2) (xy 179.07 57.15))
    (stroke (width 0) (type solid) (color 0 0 0 0))
    (uuid 8a521159-8657-443d-ace9-aa15a1f6cc4c)
  )
  (wire (pts (xy 179.07 86.36) (xy 179.07 87.63))
    (stroke (width 0) (type solid) (color 0 0 0 0))
    (uuid 913f82d9-2088-46e9-966b-7b517c0c847a)
  )
  (wire (pts (xy 179.07 87.63) (xy 179.07 88.9))
    (stroke (width 0) (type solid) (color 0 0 0 0))
    (uuid 913f82d9-2088-46e9-966b-7b517c0c847a)
  )
  (wire (pts (xy 179.07 104.14) (xy 179.07 105.41))
    (stroke (width 0) (type solid) (color 0 0 0 0))
    (uuid 83d44ee1-abfc-4ec1-84c5-c1f05b4ffcd4)
  )
  (wire (pts (xy 179.07 105.41) (xy 170.18 105.41))
    (stroke (width 0) (type solid) (color 0 0 0 0))
    (uuid eea34219-37d5-496f-86cc-9b5d9f963961)
  )
  (wire (pts (xy 179.07 105.41) (xy 179.07 119.38))
    (stroke (width 0) (type solid) (color 0 0 0 0))
    (uuid 83d44ee1-abfc-4ec1-84c5-c1f05b4ffcd4)
  )
  (wire (pts (xy 179.07 119.38) (xy 179.07 125.73))
    (stroke (width 0) (type solid) (color 0 0 0 0))
    (uuid e64d74a1-7b79-41be-ae9f-aea3a8384cec)
  )
  (wire (pts (xy 193.04 54.61) (xy 193.04 73.66))
    (stroke (width 0) (type solid) (color 0 0 0 0))
    (uuid 299ecbad-2f12-4960-8c6a-faf08ac41daf)
  )
  (wire (pts (xy 193.04 73.66) (xy 193.04 78.74))
    (stroke (width 0) (type solid) (color 0 0 0 0))
    (uuid 299ecbad-2f12-4960-8c6a-faf08ac41daf)
  )
  (wire (pts (xy 200.66 57.15) (xy 179.07 57.15))
    (stroke (width 0) (type solid) (color 0 0 0 0))
    (uuid e6833570-b26f-4727-be5a-f6c241d6bade)
  )
  (wire (pts (xy 200.66 58.42) (xy 200.66 57.15))
    (stroke (width 0) (type solid) (color 0 0 0 0))
    (uuid 0ba34e04-2453-427d-afb9-cdc13570fda3)
  )
  (wire (pts (xy 200.66 67.31) (xy 200.66 66.04))
    (stroke (width 0) (type solid) (color 0 0 0 0))
    (uuid 121abfb7-4251-4846-a874-019b45aaf785)
  )
  (wire (pts (xy 200.66 67.31) (xy 209.55 67.31))
    (stroke (width 0) (type solid) (color 0 0 0 0))
    (uuid 121abfb7-4251-4846-a874-019b45aaf785)
  )
  (wire (pts (xy 200.66 68.58) (xy 200.66 67.31))
    (stroke (width 0) (type solid) (color 0 0 0 0))
    (uuid 5a6fea9e-fdee-43e9-a34e-481960b9577a)
  )
  (wire (pts (xy 209.55 57.15) (xy 200.66 57.15))
    (stroke (width 0) (type solid) (color 0 0 0 0))
    (uuid e6833570-b26f-4727-be5a-f6c241d6bade)
  )
  (wire (pts (xy 209.55 58.42) (xy 209.55 57.15))
    (stroke (width 0) (type solid) (color 0 0 0 0))
    (uuid d09be98a-f0eb-44ea-bb81-d8634dcfbc7f)
  )
  (wire (pts (xy 209.55 67.31) (xy 209.55 66.04))
    (stroke (width 0) (type solid) (color 0 0 0 0))
    (uuid 1db2144a-4804-4191-a19d-7dae08e7c2d6)
  )
  (wire (pts (xy 209.55 67.31) (xy 214.63 67.31))
    (stroke (width 0) (type solid) (color 0 0 0 0))
    (uuid 121abfb7-4251-4846-a874-019b45aaf785)
  )
  (wire (pts (xy 212.09 101.6) (xy 212.09 110.49))
    (stroke (width 0) (type solid) (color 0 0 0 0))
    (uuid 93b6f659-e194-4243-98d4-abb7162ccf2d)
  )
  (wire (pts (xy 212.09 110.49) (xy 212.09 119.38))
    (stroke (width 0) (type solid) (color 0 0 0 0))
    (uuid d0327b85-620d-44dd-adff-9d7949d3dc13)
  )
  (wire (pts (xy 212.09 119.38) (xy 179.07 119.38))
    (stroke (width 0) (type solid) (color 0 0 0 0))
    (uuid c1ed95b9-f4d8-4bbe-ad77-9c6fb2a6a20e)
  )
  (wire (pts (xy 213.36 101.6) (xy 212.09 101.6))
    (stroke (width 0) (type solid) (color 0 0 0 0))
    (uuid 93b6f659-e194-4243-98d4-abb7162ccf2d)
  )
  (wire (pts (xy 213.36 110.49) (xy 212.09 110.49))
    (stroke (width 0) (type solid) (color 0 0 0 0))
    (uuid d0327b85-620d-44dd-adff-9d7949d3dc13)
  )
  (wire (pts (xy 217.17 119.38) (xy 212.09 119.38))
    (stroke (width 0) (type solid) (color 0 0 0 0))
    (uuid c1ed95b9-f4d8-4bbe-ad77-9c6fb2a6a20e)
  )
  (wire (pts (xy 220.98 101.6) (xy 222.25 101.6))
    (stroke (width 0) (type solid) (color 0 0 0 0))
    (uuid f0fe8126-2a2b-4b87-b588-84618697c325)
  )
  (wire (pts (xy 220.98 110.49) (xy 222.25 110.49))
    (stroke (width 0) (type solid) (color 0 0 0 0))
    (uuid 2be14a3b-fe66-408f-9f53-65ac5d115751)
  )
  (wire (pts (xy 222.25 57.15) (xy 209.55 57.15))
    (stroke (width 0) (type solid) (color 0 0 0 0))
    (uuid e6833570-b26f-4727-be5a-f6c241d6bade)
  )
  (wire (pts (xy 222.25 62.23) (xy 222.25 57.15))
    (stroke (width 0) (type solid) (color 0 0 0 0))
    (uuid e6833570-b26f-4727-be5a-f6c241d6bade)
  )
  (wire (pts (xy 222.25 72.39) (xy 222.25 91.44))
    (stroke (width 0) (type solid) (color 0 0 0 0))
    (uuid 650b7239-32e4-44a5-9157-e2b51667a7a8)
  )
  (wire (pts (xy 222.25 99.06) (xy 222.25 101.6))
    (stroke (width 0) (type solid) (color 0 0 0 0))
    (uuid 650b7239-32e4-44a5-9157-e2b51667a7a8)
  )
  (wire (pts (xy 222.25 101.6) (xy 222.25 110.49))
    (stroke (width 0) (type solid) (color 0 0 0 0))
    (uuid 650b7239-32e4-44a5-9157-e2b51667a7a8)
  )
  (wire (pts (xy 222.25 110.49) (xy 222.25 111.76))
    (stroke (width 0) (type solid) (color 0 0 0 0))
    (uuid 2be14a3b-fe66-408f-9f53-65ac5d115751)
  )
  (wire (pts (xy 233.68 119.38) (xy 227.33 119.38))
    (stroke (width 0) (type solid) (color 0 0 0 0))
    (uuid abfd60ed-b319-4417-976d-be91c1a15c41)
  )
  (wire (pts (xy 233.68 123.19) (xy 233.68 119.38))
    (stroke (width 0) (type solid) (color 0 0 0 0))
    (uuid 31505ae7-e351-4062-8638-2431e5afecb5)
  )
  (wire (pts (xy 241.3 119.38) (xy 233.68 119.38))
    (stroke (width 0) (type solid) (color 0 0 0 0))
    (uuid abfd60ed-b319-4417-976d-be91c1a15c41)
  )
  (wire (pts (xy 241.3 119.38) (xy 241.3 121.92))
    (stroke (width 0) (type solid) (color 0 0 0 0))
    (uuid daaa4b48-dd00-4406-bd95-30c55f3fbc83)
  )
  (wire (pts (xy 241.3 119.38) (xy 243.84 119.38))
    (stroke (width 0) (type solid) (color 0 0 0 0))
    (uuid 6fa80fe5-d236-4b75-89c2-cd8c323b3eb0)
  )
  (wire (pts (xy 243.84 121.92) (xy 241.3 121.92))
    (stroke (width 0) (type solid) (color 0 0 0 0))
    (uuid daaa4b48-dd00-4406-bd95-30c55f3fbc83)
  )
  (wire (pts (xy 251.46 119.38) (xy 254 119.38))
    (stroke (width 0) (type solid) (color 0 0 0 0))
    (uuid 6fa80fe5-d236-4b75-89c2-cd8c323b3eb0)
  )
  (wire (pts (xy 251.46 121.92) (xy 254 121.92))
    (stroke (width 0) (type solid) (color 0 0 0 0))
    (uuid 259f6f7f-3398-4046-8816-e52ee91d7e0d)
  )
  (wire (pts (xy 254 119.38) (xy 254 121.92))
    (stroke (width 0) (type solid) (color 0 0 0 0))
    (uuid 259f6f7f-3398-4046-8816-e52ee91d7e0d)
  )
  (wire (pts (xy 254 119.38) (xy 257.81 119.38))
    (stroke (width 0) (type solid) (color 0 0 0 0))
    (uuid 6fa80fe5-d236-4b75-89c2-cd8c323b3eb0)
  )
  (bus (pts (xy 26.67 123.19) (xy 27.94 123.19))
    (stroke (width 0) (type solid) (color 0 0 0 0))
    (uuid 237e0d91-02e2-4509-a9e7-b41fa3fb8dda)
  )
  (bus (pts (xy 27.94 123.19) (xy 27.94 130.81))
    (stroke (width 0) (type solid) (color 0 0 0 0))
    (uuid 237e0d91-02e2-4509-a9e7-b41fa3fb8dda)
  )

  (text "ADDR = 0x2F" (at 50.8 147.32 0)
    (effects (font (size 1.27 1.27)) (justify left bottom))
    (uuid dd2572e2-6867-403a-aa09-8ceb01808bca)
  )
  (text "BOM note: if a replacement for the specified '3904 is needed,\nit MUST have V_{cbo} or V_{ces} of 60V and f_{T} of 300MHz.\nNot all 3904s are equal.\n\nThe same requirement does not exist for the '3906."
    (at 125.73 161.29 0)
    (effects (font (size 1.27 1.27)) (justify left bottom))
    (uuid 42c27bf4-e8ca-40ce-ac4d-cb872b9b714e)
  )

  (label "SCL" (at 43.18 128.27 0)
    (effects (font (size 1.27 1.27)) (justify left bottom))
    (uuid 9a213c9c-6336-483a-aa24-77b0bb6bf0f0)
  )
  (label "SDA" (at 43.18 130.81 0)
    (effects (font (size 1.27 1.27)) (justify left bottom))
    (uuid 16654961-6708-4d23-975a-d6722ed37f99)
  )

  (global_label "+50V" (shape input) (at 116.84 57.15 180)
    (effects (font (size 1.27 1.27)) (justify right))
    (uuid ad57752b-0286-41f9-a474-dd7943147421)
    (property "Intersheet References" "${INTERSHEET_REFS}" (id 0) (at 109.3469 57.0706 0)
      (effects (font (size 1.27 1.27)) (justify right) hide)
    )
  )

  (hierarchical_label "{I2C}" (shape bidirectional) (at 26.67 123.19 180)
    (effects (font (size 1.27 1.27)) (justify right))
    (uuid 7cf10bcf-4d8a-4383-a3e9-39063ab152e9)
  )
  (hierarchical_label "INTEN" (shape input) (at 27.94 114.3 180)
    (effects (font (size 1.27 1.27)) (justify right))
    (uuid 43618524-ede6-4037-bc5c-bf39d9204d4b)
  )
  (hierarchical_label "~LOCKOUT" (shape input) (at 38.1 54.61 180)
    (effects (font (size 1.27 1.27)) (justify right))
    (uuid 57fede97-77ee-4f6f-a01a-3185d7c2abf0)
  )
  (hierarchical_label "CATHODE" (shape output) (at 257.81 119.38 0)
    (effects (font (size 1.27 1.27)) (justify left))
    (uuid 38b9100e-f622-402f-bdfa-26ad53194aa5)
  )

  (symbol (lib_id "power:+5V") (at 55.88 120.65 0) (unit 1)
    (in_bom yes) (on_board yes)
    (uuid 607366a0-2a9c-4aea-808d-4c07a37354c9)
    (property "Reference" "#PWR084" (id 0) (at 55.88 124.46 0)
      (effects (font (size 1.27 1.27)) hide)
    )
    (property "Value" "+5V" (id 1) (at 55.88 117.094 0))
    (property "Footprint" "" (id 2) (at 55.88 120.65 0)
      (effects (font (size 1.27 1.27)) hide)
    )
    (property "Datasheet" "" (id 3) (at 55.88 120.65 0)
      (effects (font (size 1.27 1.27)) hide)
    )
    (pin "1" (uuid 280d9efa-f049-4880-aea5-11027773f3fd))
  )

  (symbol (lib_id "power:+5V") (at 93.98 149.86 0) (unit 1)
    (in_bom yes) (on_board yes)
    (uuid 217d27d9-ee6e-4c20-b364-861ffbbaab28)
    (property "Reference" "#PWR087" (id 0) (at 93.98 153.67 0)
      (effects (font (size 1.27 1.27)) hide)
    )
    (property "Value" "+5V" (id 1) (at 93.98 146.304 0))
    (property "Footprint" "" (id 2) (at 93.98 149.86 0)
      (effects (font (size 1.27 1.27)) hide)
    )
    (property "Datasheet" "" (id 3) (at 93.98 149.86 0)
      (effects (font (size 1.27 1.27)) hide)
    )
    (pin "1" (uuid fae0cbd0-7180-4144-b876-da918c7f0014))
  )

  (symbol (lib_id "power:+5V") (at 109.22 121.92 0) (unit 1)
    (in_bom yes) (on_board yes)
    (uuid 0ddd543b-888a-4653-a9eb-2fdc917fe93b)
    (property "Reference" "#PWR089" (id 0) (at 109.22 125.73 0)
      (effects (font (size 1.27 1.27)) hide)
    )
    (property "Value" "+5V" (id 1) (at 109.22 118.364 0))
    (property "Footprint" "" (id 2) (at 109.22 121.92 0)
      (effects (font (size 1.27 1.27)) hide)
    )
    (property "Datasheet" "" (id 3) (at 109.22 121.92 0)
      (effects (font (size 1.27 1.27)) hide)
    )
    (pin "1" (uuid b7f138e0-0f99-480d-a28f-6344728bdd66))
  )

  (symbol (lib_id "power:+5V") (at 129.54 120.65 90) (unit 1)
    (in_bom yes) (on_board yes)
    (uuid 48f936a5-c7b5-4c0a-9837-b04412baafc6)
    (property "Reference" "#PWR092" (id 0) (at 133.35 120.65 0)
      (effects (font (size 1.27 1.27)) hide)
    )
    (property "Value" "+5V" (id 1) (at 125.984 120.65 0))
    (property "Footprint" "" (id 2) (at 129.54 120.65 0)
      (effects (font (size 1.27 1.27)) hide)
    )
    (property "Datasheet" "" (id 3) (at 129.54 120.65 0)
      (effects (font (size 1.27 1.27)) hide)
    )
    (pin "1" (uuid b9e38e4c-ee53-4f21-a030-2f21f9cedb9f))
  )

  (symbol (lib_id "power:GND") (at 55.88 138.43 0) (unit 1)
    (in_bom yes) (on_board yes)
    (uuid bd1e1e7d-0738-4526-a760-12d814124d5b)
    (property "Reference" "#PWR085" (id 0) (at 55.88 144.78 0)
      (effects (font (size 1.27 1.27)) hide)
    )
    (property "Value" "GND" (id 1) (at 55.88 142.24 0)
      (effects (font (size 1.27 1.27)) hide)
    )
    (property "Footprint" "" (id 2) (at 55.88 138.43 0)
      (effects (font (size 1.27 1.27)) hide)
    )
    (property "Datasheet" "" (id 3) (at 55.88 138.43 0)
      (effects (font (size 1.27 1.27)) hide)
    )
    (pin "1" (uuid 1df6b5df-59b0-423f-8652-0c86e8377ebd))
  )

  (symbol (lib_id "power:GND") (at 88.9 160.02 0) (unit 1)
    (in_bom yes) (on_board yes)
    (uuid b5020f8a-176d-4bc7-acc2-dbfadef5845a)
    (property "Reference" "#PWR086" (id 0) (at 88.9 166.37 0)
      (effects (font (size 1.27 1.27)) hide)
    )
    (property "Value" "GND" (id 1) (at 88.9 163.83 0))
    (property "Footprint" "" (id 2) (at 88.9 160.02 0)
      (effects (font (size 1.27 1.27)) hide)
    )
    (property "Datasheet" "" (id 3) (at 88.9 160.02 0)
      (effects (font (size 1.27 1.27)) hide)
    )
    (pin "1" (uuid 9efb1b2f-d212-4402-8ccf-d47dccbba66d))
  )

  (symbol (lib_id "power:GND") (at 109.22 105.41 270) (unit 1)
    (in_bom yes) (on_board yes)
    (uuid e63e47c4-856d-45c9-818a-cb60e5c8dbce)
    (property "Reference" "#PWR088" (id 0) (at 102.87 105.41 0)
      (effects (font (size 1.27 1.27)) hide)
    )
    (property "Value" "GND" (id 1) (at 105.41 105.41 0))
    (property "Footprint" "" (id 2) (at 109.22 105.41 0)
      (effects (font (size 1.27 1.27)) hide)
    )
    (property "Datasheet" "" (id 3) (at 109.22 105.41 0)
      (effects (font (size 1.27 1.27)) hide)
    )
    (pin "1" (uuid 597bac03-acc9-4ccf-9b08-edaa493a8f34))
  )

  (symbol (lib_id "power:GND") (at 109.22 129.54 0) (unit 1)
    (in_bom yes) (on_board yes)
    (uuid 4de5e4f2-45e7-4265-99ca-db1ad6ebb345)
    (property "Reference" "#PWR090" (id 0) (at 109.22 135.89 0)
      (effects (font (size 1.27 1.27)) hide)
    )
    (property "Value" "GND" (id 1) (at 109.22 133.35 0))
    (property "Footprint" "" (id 2) (at 109.22 129.54 0)
      (effects (font (size 1.27 1.27)) hide)
    )
    (property "Datasheet" "" (id 3) (at 109.22 129.54 0)
      (effects (font (size 1.27 1.27)) hide)
    )
    (pin "1" (uuid 5be913af-9e52-43b9-ba86-30d5da66111a))
  )

  (symbol (lib_id "power:GND") (at 119.38 67.31 0) (unit 1)
    (in_bom yes) (on_board yes)
    (uuid 97391e53-1112-4065-82e1-df084a223e29)
    (property "Reference" "#PWR091" (id 0) (at 119.38 73.66 0)
      (effects (font (size 1.27 1.27)) hide)
    )
    (property "Value" "GND" (id 1) (at 119.38 71.12 0))
    (property "Footprint" "" (id 2) (at 119.38 67.31 0)
      (effects (font (size 1.27 1.27)) hide)
    )
    (property "Datasheet" "" (id 3) (at 119.38 67.31 0)
      (effects (font (size 1.27 1.27)) hide)
    )
    (pin "1" (uuid cfb3e84d-b4c5-4098-9d00-e9683c58abe5))
  )

  (symbol (lib_id "power:GND") (at 151.13 143.51 0) (unit 1)
    (in_bom yes) (on_board yes)
    (uuid bfa7e4a3-8095-4fd1-b5db-06e3dd8b2868)
    (property "Reference" "#PWR093" (id 0) (at 151.13 149.86 0)
      (effects (font (size 1.27 1.27)) hide)
    )
    (property "Value" "GND" (id 1) (at 151.13 147.32 0))
    (property "Footprint" "" (id 2) (at 151.13 143.51 0)
      (effects (font (size 1.27 1.27)) hide)
    )
    (property "Datasheet" "" (id 3) (at 151.13 143.51 0)
      (effects (font (size 1.27 1.27)) hide)
    )
    (pin "1" (uuid 109908bc-ec47-410a-9ad2-7008f509ccad))
  )

  (symbol (lib_id "power:GND") (at 193.04 86.36 0) (unit 1)
    (in_bom yes) (on_board yes)
    (uuid 3b25c4ca-9c51-4842-8920-f778ef889f54)
    (property "Reference" "#PWR094" (id 0) (at 193.04 92.71 0)
      (effects (font (size 1.27 1.27)) hide)
    )
    (property "Value" "GND" (id 1) (at 193.04 90.17 0))
    (property "Footprint" "" (id 2) (at 193.04 86.36 0)
      (effects (font (size 1.27 1.27)) hide)
    )
    (property "Datasheet" "" (id 3) (at 193.04 86.36 0)
      (effects (font (size 1.27 1.27)) hide)
    )
    (pin "1" (uuid 683cfc9f-6d16-4131-8f35-6d4c7382e340))
  )

  (symbol (lib_id "power:GND") (at 200.66 86.36 0) (unit 1)
    (in_bom yes) (on_board yes)
    (uuid 2f4440e3-c21f-4870-bb41-735a4f79022c)
    (property "Reference" "#PWR095" (id 0) (at 200.66 92.71 0)
      (effects (font (size 1.27 1.27)) hide)
    )
    (property "Value" "GND" (id 1) (at 200.66 90.17 0))
    (property "Footprint" "" (id 2) (at 200.66 86.36 0)
      (effects (font (size 1.27 1.27)) hide)
    )
    (property "Datasheet" "" (id 3) (at 200.66 86.36 0)
      (effects (font (size 1.27 1.27)) hide)
    )
    (pin "1" (uuid e589da3c-1440-45e2-9a26-a9c7e40481ab))
  )

  (symbol (lib_id "power:GND") (at 233.68 130.81 0) (unit 1)
    (in_bom yes) (on_board yes)
    (uuid 4a44083c-591e-431b-8a11-09ce2ff8a206)
    (property "Reference" "#PWR096" (id 0) (at 233.68 137.16 0)
      (effects (font (size 1.27 1.27)) hide)
    )
    (property "Value" "GND" (id 1) (at 233.68 134.62 0))
    (property "Footprint" "" (id 2) (at 233.68 130.81 0)
      (effects (font (size 1.27 1.27)) hide)
    )
    (property "Datasheet" "" (id 3) (at 233.68 130.81 0)
      (effects (font (size 1.27 1.27)) hide)
    )
    (pin "1" (uuid 4a3334fd-15ca-4734-aaeb-09f7d0bc1280))
  )

  (symbol (lib_id "Device:L") (at 247.65 119.38 90) (unit 1)
    (in_bom yes) (on_board yes)
    (uuid 2af3a1e0-98cb-4492-af7e-43d473dcdfdd)
    (property "Reference" "L9" (id 0) (at 247.65 114.3 90))
    (property "Value" "330n" (id 1) (at 247.65 116.84 90))
    (property "Footprint" "fixed_standard:C_0402_1005Metric_Pad0.74x0.62mm_HandSolder" (id 2) (at 247.65 119.38 0)
      (effects (font (size 1.27 1.27)) hide)
    )
    (property "Datasheet" "~" (id 3) (at 247.65 119.38 0)
      (effects (font (size 1.27 1.27)) hide)
    )
    (property "Spec" "Ind 330n 0402" (id 4) (at 247.65 119.38 0)
      (effects (font (size 1.27 1.27)) hide)
    )
    (property "BOM" "DK:283-MCL1005-331-RCT-ND" (id 5) (at 247.65 119.38 0)
      (effects (font (size 1.27 1.27)) hide)
    )
    (pin "1" (uuid 8e0efa5d-8a5f-47d6-9a42-5d772d6945b8))
    (pin "2" (uuid dfbf9487-b97c-40c7-ba3a-3eb420c51b1d))
  )

  (symbol (lib_id "Device:R") (at 74.93 114.3 90) (unit 1)
    (in_bom yes) (on_board yes)
    (uuid cd5af60d-5fec-4b44-b18e-c30690daedf1)
    (property "Reference" "R114" (id 0) (at 74.93 109.22 90))
    (property "Value" "DNS" (id 1) (at 74.93 111.76 90))
    (property "Footprint" "fixed_standard:R_0402_1005Metric_Pad0.72x0.64mm_HandSolder" (id 2) (at 74.93 116.078 90)
      (effects (font (size 1.27 1.27)) hide)
    )
    (property "Datasheet" "~" (id 3) (at 74.93 114.3 0)
      (effects (font (size 1.27 1.27)) hide)
    )
    (pin "1" (uuid 73b9feb3-5ee4-4e33-b11d-d414f89117e5))
    (pin "2" (uuid 720f6829-c124-4eb6-8fad-f3927f1cc2a8))
  )

  (symbol (lib_id "Device:R") (at 115.57 105.41 90) (unit 1)
    (in_bom yes) (on_board yes)
    (uuid 08b27df0-aacc-43dd-9fbf-32616f14dc14)
    (property "Reference" "R115" (id 0) (at 115.57 100.33 90))
    (property "Value" "47k" (id 1) (at 115.57 102.87 90))
    (property "Footprint" "fixed_standard:R_0402_1005Metric_Pad0.72x0.64mm_HandSolder" (id 2) (at 115.57 107.188 90)
      (effects (font (size 1.27 1.27)) hide)
    )
    (property "Datasheet" "~" (id 3) (at 115.57 105.41 0)
      (effects (font (size 1.27 1.27)) hide)
    )
    (property "JLC" "C25792" (id 4) (at 115.57 105.41 0)
      (effects (font (size 1.27 1.27)) hide)
    )
    (pin "1" (uuid ceb1bb5e-4339-4d1b-a49c-65a42064c35a))
    (pin "2" (uuid bc055a04-7aec-4e39-96e1-caf909e2a245))
  )

  (symbol (lib_id "os2_symbols:R_QW") (at 130.81 101.6 180) (unit 1)
    (in_bom yes) (on_board yes)
    (uuid 38fb53e8-e265-4df1-9b47-40750be4f3b7)
    (property "Reference" "R116" (id 0) (at 133.35 100.9649 0)
      (effects (font (size 1.27 1.27)) (justify right))
    )
    (property "Value" "33k" (id 1) (at 133.35 103.5049 0)
      (effects (font (size 1.27 1.27)) (justify right))
    )
    (property "Footprint" "Resistor_SMD:R_0805_2012Metric_Pad1.20x1.40mm_HandSolder" (id 2) (at 132.588 101.6 90)
      (effects (font (size 1.27 1.27)) hide)
    )
    (property "Datasheet" "~" (id 3) (at 130.81 101.6 0)
      (effects (font (size 1.27 1.27)) hide)
    )
    (pin "1" (uuid 711089db-1558-4539-9326-c7b34eb7c9b1))
    (pin "2" (uuid 1c2ef504-9e5d-4855-851a-6c4c5f6bf345))
  )

  (symbol (lib_id "os2_symbols:R_QW") (at 146.05 63.5 0) (unit 1)
    (in_bom yes) (on_board yes)
    (uuid 173d488e-bdac-4ca4-9f62-1c2cf9401252)
    (property "Reference" "R117" (id 0) (at 148.59 62.8649 0)
      (effects (font (size 1.27 1.27)) (justify left))
    )
    (property "Value" "5k6" (id 1) (at 148.59 65.4049 0)
      (effects (font (size 1.27 1.27)) (justify left))
    )
    (property "Footprint" "Resistor_SMD:R_0805_2012Metric_Pad1.20x1.40mm_HandSolder" (id 2) (at 144.272 63.5 90)
      (effects (font (size 1.27 1.27)) hide)
    )
    (property "Datasheet" "~" (id 3) (at 146.05 63.5 0)
      (effects (font (size 1.27 1.27)) hide)
    )
    (pin "1" (uuid c07ae8c9-7cdd-42fb-a8d4-2a3cb761957c))
    (pin "2" (uuid 438e9f55-97d8-4e9f-8931-e09ce59f8816))
  )

  (symbol (lib_id "os2_symbols:R_QW") (at 146.05 76.2 0) (unit 1)
    (in_bom yes) (on_board yes)
    (uuid f9348402-7d7a-4025-8e80-14da703a7571)
    (property "Reference" "R118" (id 0) (at 148.59 75.5649 0)
      (effects (font (size 1.27 1.27)) (justify left))
    )
    (property "Value" "5k6" (id 1) (at 148.59 78.1049 0)
      (effects (font (size 1.27 1.27)) (justify left))
    )
    (property "Footprint" "Resistor_SMD:R_0805_2012Metric_Pad1.20x1.40mm_HandSolder" (id 2) (at 144.272 76.2 90)
      (effects (font (size 1.27 1.27)) hide)
    )
    (property "Datasheet" "~" (id 3) (at 146.05 76.2 0)
      (effects (font (size 1.27 1.27)) hide)
    )
    (pin "1" (uuid 8fa7c2bc-9127-4a4d-869b-1417dc284b71))
    (pin "2" (uuid 8f324985-adf5-4de4-9391-2ef492cf46d5))
  )

  (symbol (lib_id "os2_symbols:R_QW") (at 151.13 125.73 90) (unit 1)
    (in_bom yes) (on_board yes)
    (uuid a67014d4-0b81-4fa3-b366-1d4d9cd91640)
    (property "Reference" "R119" (id 0) (at 151.13 120.65 90))
    (property "Value" "33k" (id 1) (at 151.13 123.19 90))
    (property "Footprint" "Resistor_SMD:R_0805_2012Metric_Pad1.20x1.40mm_HandSolder" (id 2) (at 151.13 127.508 90)
      (effects (font (size 1.27 1.27)) hide)
    )
    (property "Datasheet" "~" (id 3) (at 151.13 125.73 0)
      (effects (font (size 1.27 1.27)) hide)
    )
    (pin "1" (uuid 9993cc18-8f43-4827-aecf-30d4afa38c2e))
    (pin "2" (uuid 3c64f51f-b3d5-4584-b1de-3c6e5da3102d))
  )

  (symbol (lib_id "Device:R") (at 179.07 92.71 180) (unit 1)
    (in_bom yes) (on_board yes)
    (uuid d85fabc1-a99e-491f-8eb6-77237a48f783)
    (property "Reference" "R120" (id 0) (at 181.61 92.0749 0)
      (effects (font (size 1.27 1.27)) (justify right))
    )
    (property "Value" "33" (id 1) (at 181.61 94.6149 0)
      (effects (font (size 1.27 1.27)) (justify right))
    )
    (property "Footprint" "fixed_standard:R_0402_1005Metric_Pad0.72x0.64mm_HandSolder" (id 2) (at 180.848 92.71 90)
      (effects (font (size 1.27 1.27)) hide)
    )
    (property "Datasheet" "~" (id 3) (at 179.07 92.71 0)
      (effects (font (size 1.27 1.27)) hide)
    )
    (property "JLC" "C25105" (id 4) (at 179.07 92.71 0)
      (effects (font (size 1.27 1.27)) hide)
    )
    (property "Spec" "Res 33 1% 0402" (id 5) (at 179.07 92.71 0)
      (effects (font (size 1.27 1.27)) hide)
    )
    (pin "1" (uuid ce208381-331f-4da5-a2bf-c7e07f5d52a2))
    (pin "2" (uuid 77a94134-e409-4f37-9460-2598f980dac1))
  )

  (symbol (lib_id "Device:R") (at 179.07 100.33 180) (unit 1)
    (in_bom yes) (on_board yes)
    (uuid 8eeaa929-96e3-424f-9b19-d7f64e9fbcbf)
    (property "Reference" "R121" (id 0) (at 181.61 99.6949 0)
      (effects (font (size 1.27 1.27)) (justify right))
    )
    (property "Value" "33" (id 1) (at 181.61 102.2349 0)
      (effects (font (size 1.27 1.27)) (justify right))
    )
    (property "Footprint" "fixed_standard:R_0402_1005Metric_Pad0.72x0.64mm_HandSolder" (id 2) (at 180.848 100.33 90)
      (effects (font (size 1.27 1.27)) hide)
    )
    (property "Datasheet" "~" (id 3) (at 179.07 100.33 0)
      (effects (font (size 1.27 1.27)) hide)
    )
    (property "JLC" "C25105" (id 4) (at 179.07 100.33 0)
      (effects (font (size 1.27 1.27)) hide)
    )
    (property "Spec" "Res 33 1% 0402" (id 5) (at 179.07 100.33 0)
      (effects (font (size 1.27 1.27)) hide)
    )
    (pin "1" (uuid 5b588e0a-d5a5-4780-afdf-f16b1afaa4dd))
    (pin "2" (uuid 2b3c1c93-9763-476e-87de-2cbf3cd3b449))
  )

  (symbol (lib_id "Device:R") (at 193.04 82.55 0) (unit 1)
    (in_bom yes) (on_board yes)
    (uuid fd6bb41a-26a3-4399-9ead-09685b3d714c)
    (property "Reference" "R122" (id 0) (at 196.85 81.9149 0))
    (property "Value" "10k" (id 1) (at 196.85 84.4549 0))
    (property "Footprint" "fixed_standard:R_0402_1005Metric_Pad0.72x0.64mm_HandSolder" (id 2) (at 191.262 82.55 90)
      (effects (font (size 1.27 1.27)) hide)
    )
    (property "Datasheet" "~" (id 3) (at 193.04 82.55 0)
      (effects (font (size 1.27 1.27)) hide)
    )
    (property "Spec" "RES 10k 1% 0402" (id 4) (at 193.04 82.55 0)
      (effects (font (size 1.27 1.27)) hide)
    )
    (property "JLC" "C25744" (id 5) (at 193.04 82.55 0)
      (effects (font (size 1.27 1.27)) hide)
    )
    (pin "1" (uuid 40654664-f3b3-41b5-9b85-1fb659c8a8a1))
    (pin "2" (uuid e7065230-35c1-42da-b534-4f338edc8704))
  )

  (symbol (lib_id "Device:R") (at 200.66 62.23 0) (unit 1)
    (in_bom yes) (on_board yes)
    (uuid b91a5a4e-3948-4d5d-895c-cb09a58ab759)
    (property "Reference" "R123" (id 0) (at 203.2 61.5949 0)
      (effects (font (size 1.27 1.27)) (justify left))
    )
    (property "Value" "10k" (id 1) (at 203.2 64.1349 0)
      (effects (font (size 1.27 1.27)) (justify left))
    )
    (property "Footprint" "fixed_standard:R_0402_1005Metric_Pad0.72x0.64mm_HandSolder" (id 2) (at 198.882 62.23 90)
      (effects (font (size 1.27 1.27)) hide)
    )
    (property "Datasheet" "~" (id 3) (at 200.66 62.23 0)
      (effects (font (size 1.27 1.27)) hide)
    )
    (property "Spec" "RES 10k 1% 0402" (id 4) (at 200.66 62.23 0)
      (effects (font (size 1.27 1.27)) hide)
    )
    (property "JLC" "C25744" (id 5) (at 200.66 62.23 0)
      (effects (font (size 1.27 1.27)) hide)
    )
    (pin "1" (uuid dacba63c-12de-49f3-aee5-15d7f0527705))
    (pin "2" (uuid a7b465b3-19a4-4ae6-89a0-18ec8395b786))
  )

  (symbol (lib_id "Device:R") (at 200.66 82.55 0) (unit 1)
    (in_bom yes) (on_board yes)
    (uuid 085335d2-8205-4f88-b968-3659bd78cf13)
    (property "Reference" "R124" (id 0) (at 203.2 81.9149 0)
      (effects (font (size 1.27 1.27)) (justify left))
    )
    (property "Value" "10k" (id 1) (at 203.2 84.4549 0)
      (effects (font (size 1.27 1.27)) (justify left))
    )
    (property "Footprint" "fixed_standard:R_0402_1005Metric_Pad0.72x0.64mm_HandSolder" (id 2) (at 198.882 82.55 90)
      (effects (font (size 1.27 1.27)) hide)
    )
    (property "Datasheet" "~" (id 3) (at 200.66 82.55 0)
      (effects (font (size 1.27 1.27)) hide)
    )
    (property "Spec" "RES 10k 1% 0402" (id 4) (at 200.66 82.55 0)
      (effects (font (size 1.27 1.27)) hide)
    )
    (property "JLC" "C25744" (id 5) (at 200.66 82.55 0)
      (effects (font (size 1.27 1.27)) hide)
    )
    (pin "1" (uuid 200772cf-3989-4371-86d3-0249e8f9a0bd))
    (pin "2" (uuid ae734ae2-446a-4699-9038-73621ae0eb3d))
  )

  (symbol (lib_id "Device:R") (at 217.17 110.49 90) (unit 1)
    (in_bom yes) (on_board yes)
    (uuid 74d55c82-2fe5-4bb2-9f17-95ac9e72a100)
    (property "Reference" "R125" (id 0) (at 217.17 105.41 90))
    (property "Value" "1M" (id 1) (at 217.17 107.95 90))
    (property "Footprint" "fixed_standard:R_0402_1005Metric_Pad0.72x0.64mm_HandSolder" (id 2) (at 217.17 112.268 90)
      (effects (font (size 1.27 1.27)) hide)
    )
    (property "Datasheet" "~" (id 3) (at 217.17 110.49 0)
      (effects (font (size 1.27 1.27)) hide)
    )
    (property "JLC" "C26083" (id 4) (at 217.17 110.49 0)
      (effects (font (size 1.27 1.27)) hide)
    )
    (property "Spec" "Res 1M 1% 0402" (id 5) (at 217.17 110.49 0)
      (effects (font (size 1.27 1.27)) hide)
    )
    (pin "1" (uuid 2e806610-8c2e-4f47-94ed-010110ec5b14))
    (pin "2" (uuid 15f33a2b-6cf7-4f08-9a5d-baf2650b4a39))
  )

  (symbol (lib_id "Device:R") (at 222.25 95.25 180) (unit 1)
    (in_bom yes) (on_board yes)
    (uuid c45cf75d-bccf-41ca-b4cc-bc057907ee16)
    (property "Reference" "R126" (id 0) (at 224.79 94.6149 0)
      (effects (font (size 1.27 1.27)) (justify right))
    )
    (property "Value" "100k" (id 1) (at 224.79 97.1549 0)
      (effects (font (size 1.27 1.27)) (justify right))
    )
    (property "Footprint" "fixed_standard:R_0402_1005Metric_Pad0.72x0.64mm_HandSolder" (id 2) (at 224.028 95.25 90)
      (effects (font (size 1.27 1.27)) hide)
    )
    (property "Datasheet" "~" (id 3) (at 222.25 95.25 0)
      (effects (font (size 1.27 1.27)) hide)
    )
    (property "Spec" "RES 100k 1% 0402" (id 4) (at 222.25 95.25 0)
      (effects (font (size 1.27 1.27)) hide)
    )
    (property "JLC" "C25741" (id 5) (at 222.25 95.25 0)
      (effects (font (size 1.27 1.27)) hide)
    )
    (pin "1" (uuid 1e992a46-6f2b-4d2e-8cca-d88d685a88d9))
    (pin "2" (uuid 2566e390-f564-4fd3-850c-c351bfb03199))
  )

  (symbol (lib_id "os2_symbols:R_QW") (at 247.65 121.92 90) (unit 1)
    (in_bom yes) (on_board yes)
    (uuid 694c40a4-371a-4954-bbcc-cd48f2511143)
    (property "Reference" "R127" (id 0) (at 247.65 125.73 90))
    (property "Value" "560" (id 1) (at 247.65 128.27 90))
    (property "Footprint" "Resistor_SMD:R_0805_2012Metric_Pad1.20x1.40mm_HandSolder" (id 2) (at 247.65 123.698 90)
      (effects (font (size 1.27 1.27)) hide)
    )
    (property "Datasheet" "~" (id 3) (at 247.65 121.92 0)
      (effects (font (size 1.27 1.27)) hide)
    )
    (property "Spec" "Res 560 QW 0805\n" (id 4) (at 247.65 121.92 0)
      (effects (font (size 1.27 1.27)) hide)
    )
    (property "BOM" "DK:2019-RK73B2ATTD561JCT-ND" (id 5) (at 247.65 121.92 0)
      (effects (font (size 1.27 1.27)) hide)
    )
    (pin "1" (uuid 8a9ab1dc-c7a9-4bf1-9966-1aa3d0a96f17))
    (pin "2" (uuid 968b967d-da2b-4d37-823e-8c04ac1ffd52))
  )

  (symbol (lib_id "Device:D_Schottky") (at 151.13 97.79 0) (unit 1)
    (in_bom yes) (on_board yes)
    (uuid d008f057-ebe3-4625-8e57-1670a4b45701)
    (property "Reference" "D23" (id 0) (at 151.13 92.71 0))
    (property "Value" "80V/1A" (id 1) (at 151.13 95.25 0))
    (property "Footprint" "fixed_standard:D_SOD-123F" (id 2) (at 151.13 97.79 0)
      (effects (font (size 1.27 1.27)) hide)
    )
    (property "Datasheet" "~" (id 3) (at 151.13 97.79 0)
      (effects (font (size 1.27 1.27)) hide)
    )
    (property "BOM" "DK:1655-1930-1-ND" (id 4) (at 151.13 97.79 0)
      (effects (font (size 1.27 1.27)) hide)
    )
    (property "Spec" "Diode Sch 80V 1A" (id 5) (at 151.13 97.79 0)
      (effects (font (size 1.27 1.27)) hide)
    )
    (pin "1" (uuid 08e401c9-1a54-4323-aae4-9adf76724514))
    (pin "2" (uuid 4452fefa-e8e1-4583-8f9d-49469101578a))
  )

  (symbol (lib_id "Device:D_Zener") (at 233.68 127 270) (unit 1)
    (in_bom yes) (on_board yes)
    (uuid 511f92f2-fe99-4d4f-8b9d-47c8e07e1f20)
    (property "Reference" "D24" (id 0) (at 231.14 126.3649 90)
      (effects (font (size 1.27 1.27)) (justify right))
    )
    (property "Value" "100V" (id 1) (at 231.14 128.9049 90)
      (effects (font (size 1.27 1.27)) (justify right))
    )
    (property "Footprint" "fixed_standard:D_SOD-323_HandSoldering" (id 2) (at 233.68 127 0)
      (effects (font (size 1.27 1.27)) hide)
    )
    (property "Datasheet" "~" (id 3) (at 233.68 127 0)
      (effects (font (size 1.27 1.27)) hide)
    )
    (property "BOM" "DK:1727-4984-1-ND" (id 4) (at 233.68 127 90)
      (effects (font (size 1.27 1.27)) hide)
    )
    (property "Spec" "Diode Zener 100V" (id 5) (at 233.68 127 0)
      (effects (font (size 1.27 1.27)) hide)
    )
    (pin "1" (uuid 05c92c7d-312c-499f-b13f-30ed63984eb4))
    (pin "2" (uuid 577d3048-c65c-463c-a01d-eb2190d8d51b))
  )

  (symbol (lib_id "Device:C") (at 109.22 125.73 0) (unit 1)
    (in_bom yes) (on_board yes)
    (uuid a4787723-4a38-43fd-a402-77af56fc3bf7)
    (property "Reference" "C45" (id 0) (at 113.03 125.0949 0)
      (effects (font (size 1.27 1.27)) (justify left))
    )
    (property "Value" "100n" (id 1) (at 113.03 127.6349 0)
      (effects (font (size 1.27 1.27)) (justify left))
    )
    (property "Footprint" "fixed_standard:C_0402_1005Metric_Pad0.74x0.62mm_HandSolder" (id 2) (at 110.1852 129.54 0)
      (effects (font (size 1.27 1.27)) hide)
    )
    (property "Datasheet" "~" (id 3) (at 109.22 125.73 0)
      (effects (font (size 1.27 1.27)) hide)
    )
    (property "Spec" "Cap Cer 100n 16V 0402" (id 4) (at 109.22 125.73 0)
      (effects (font (size 1.27 1.27)) hide)
    )
    (property "JLC" "C1525" (id 5) (at 109.22 125.73 0)
      (effects (font (size 1.27 1.27)) hide)
    )
    (pin "1" (uuid 852a4b26-6899-42e1-9cf6-73bb6e22561f))
    (pin "2" (uuid 15da46e8-e698-440d-9220-8ac13c742cea))
  )

  (symbol (lib_id "Device:C") (at 119.38 62.23 180) (unit 1)
    (in_bom yes) (on_board yes)
    (uuid b65a241c-3a2f-435e-8f66-0c9f962a04e4)
    (property "Reference" "C46" (id 0) (at 123.19 61.5949 0)
      (effects (font (size 1.27 1.27)) (justify right))
    )
    (property "Value" "100n" (id 1) (at 123.19 64.1349 0)
      (effects (font (size 1.27 1.27)) (justify right))
    )
    (property "Footprint" "Capacitor_SMD:C_0805_2012Metric_Pad1.18x1.45mm_HandSolder" (id 2) (at 118.4148 58.42 0)
      (effects (font (size 1.27 1.27)) hide)
    )
    (property "Datasheet" "~" (id 3) (at 119.38 62.23 0)
      (effects (font (size 1.27 1.27)) hide)
    )
    (property "BOM" "DK:1276-6840-1-ND" (id 4) (at 119.38 62.23 0)
      (effects (font (size 1.27 1.27)) hide)
    )
    (property "Spec" "Cap Cer 100n 100V 0805" (id 5) (at 119.38 62.23 0)
      (effects (font (size 1.27 1.27)) hide)
    )
    (pin "1" (uuid 4f20e69f-1d80-4bda-abcd-12f65235f2fe))
    (pin "2" (uuid 9e75d4a7-8094-4147-a9f2-c86121ae2dbe))
  )

  (symbol (lib_id "Device:C") (at 142.24 134.62 90) (unit 1)
    (in_bom yes) (on_board yes)
    (uuid b68a00f0-6d1c-42e4-b70a-448da810bcdd)
    (property "Reference" "C47" (id 0) (at 142.24 128.27 90))
    (property "Value" "4p7" (id 1) (at 142.24 130.81 90))
    (property "Footprint" "fixed_standard:C_0402_1005Metric_Pad0.74x0.62mm_HandSolder" (id 2) (at 146.05 133.6548 0)
      (effects (font (size 1.27 1.27)) hide)
    )
    (property "Datasheet" "~" (id 3) (at 142.24 134.62 0)
      (effects (font (size 1.27 1.27)) hide)
    )
    (property "Spec" "Cap Cer 4.7p 100V 0402\n" (id 4) (at 142.24 134.62 0)
      (effects (font (size 1.27 1.27)) hide)
    )
    (pin "1" (uuid bca1a65e-801e-4ebc-b50e-11309f59f720))
    (pin "2" (uuid c46c5d15-f70a-49e4-857b-6b8b52806a60))
  )

  (symbol (lib_id "Device:C") (at 151.13 139.7 180) (unit 1)
    (in_bom yes) (on_board yes)
    (uuid 588e41aa-9071-4bf4-a61a-8c7cb3bc5bc7)
    (property "Reference" "C48" (id 0) (at 156.21 139.0649 0))
    (property "Value" "22p" (id 1) (at 156.21 141.6049 0))
    (property "Footprint" "fixed_standard:C_0402_1005Metric_Pad0.74x0.62mm_HandSolder" (id 2) (at 150.1648 135.89 0)
      (effects (font (size 1.27 1.27)) hide)
    )
    (property "Datasheet" "~" (id 3) (at 151.13 139.7 0)
      (effects (font (size 1.27 1.27)) hide)
    )
    (property "Spec" "Cap Cer 22p 50V 0402" (id 4) (at 151.13 139.7 0)
      (effects (font (size 1.27 1.27)) hide)
    )
    (property "JLC" "C1555" (id 5) (at 151.13 139.7 0)
      (effects (font (size 1.27 1.27)) hide)
    )
    (pin "1" (uuid c08331d5-0d8b-4856-9725-40d5b82f6313))
    (pin "2" (uuid 0bf29108-4c3f-4d55-9284-4c6dfe925c76))
  )

  (symbol (lib_id "Device:C") (at 156.21 74.93 180) (unit 1)
    (in_bom yes) (on_board yes)
    (uuid a42bac9c-88de-438a-94f8-c230e70e6c5c)
    (property "Reference" "C49" (id 0) (at 160.02 74.2949 0)
      (effects (font (size 1.27 1.27)) (justify right))
    )
    (property "Value" "10p" (id 1) (at 160.02 76.8349 0)
      (effects (font (size 1.27 1.27)) (justify right))
    )
    (property "Footprint" "fixed_standard:C_0402_1005Metric_Pad0.74x0.62mm_HandSolder" (id 2) (at 155.2448 71.12 0)
      (effects (font (size 1.27 1.27)) hide)
    )
    (property "Datasheet" "~" (id 3) (at 156.21 74.93 0)
      (effects (font (size 1.27 1.27)) hide)
    )
    (property "BOM" "DK:732-12054-1-ND" (id 4) (at 156.21 74.93 0)
      (effects (font (size 1.27 1.27)) hide)
    )
    (property "ExtraValue" "" (id 5) (at 156.21 74.93 0)
      (effects (font (size 1.27 1.27)) hide)
    )
    (property "Spec" "Cap Cer 10p 100V 0402" (id 6) (at 156.21 74.93 0)
      (effects (font (size 1.27 1.27)) hide)
    )
    (pin "1" (uuid c731ea49-ae7b-40a2-aaac-b4ce53e55797))
    (pin "2" (uuid c2d844d1-e369-4cde-be16-972500066999))
  )

  (symbol (lib_id "Device:C") (at 160.02 134.62 90) (unit 1)
    (in_bom yes) (on_board yes)
    (uuid 3292b169-13cb-475b-9a77-f51dc5c73336)
    (property "Reference" "C50" (id 0) (at 160.02 128.27 90))
    (property "Value" "4p7" (id 1) (at 160.02 130.81 90))
    (property "Footprint" "fixed_standard:C_0402_1005Metric_Pad0.74x0.62mm_HandSolder" (id 2) (at 163.83 133.6548 0)
      (effects (font (size 1.27 1.27)) hide)
    )
    (property "Datasheet" "~" (id 3) (at 160.02 134.62 0)
      (effects (font (size 1.27 1.27)) hide)
    )
    (property "Spec" "Cap Cer 4.7p 100V 0402\n" (id 4) (at 160.02 134.62 0)
      (effects (font (size 1.27 1.27)) hide)
    )
    (pin "1" (uuid 99a01414-cf07-4698-b80c-bcb20a82eb59))
    (pin "2" (uuid 741108a1-7a07-4460-adb9-7fc96f6644ed))
  )

  (symbol (lib_id "Device:C") (at 209.55 62.23 0) (unit 1)
    (in_bom yes) (on_board yes)
    (uuid 32f77eb0-654c-4417-9d77-5c613ffaa5c2)
    (property "Reference" "C51" (id 0) (at 213.36 61.5949 0)
      (effects (font (size 1.27 1.27)) (justify left))
    )
    (property "Value" "100n" (id 1) (at 213.36 64.1349 0)
      (effects (font (size 1.27 1.27)) (justify left))
    )
    (property "Footprint" "fixed_standard:C_0402_1005Metric_Pad0.74x0.62mm_HandSolder" (id 2) (at 210.5152 66.04 0)
      (effects (font (size 1.27 1.27)) hide)
    )
    (property "Datasheet" "~" (id 3) (at 209.55 62.23 0)
      (effects (font (size 1.27 1.27)) hide)
    )
    (property "Spec" "Cap Cer 100n 16V 0402" (id 4) (at 209.55 62.23 0)
      (effects (font (size 1.27 1.27)) hide)
    )
    (property "JLC" "C1525" (id 5) (at 209.55 62.23 0)
      (effects (font (size 1.27 1.27)) hide)
    )
    (pin "1" (uuid 326f4a80-d2fc-48c4-9c9b-df3e2fcf84a6))
    (pin "2" (uuid d406372d-ed0f-429e-a46e-ffebe37c98c9))
  )

  (symbol (lib_id "Device:C") (at 217.17 101.6 270) (unit 1)
    (in_bom yes) (on_board yes)
    (uuid fa50de8d-a06e-4612-bdee-1cfbed4fc235)
    (property "Reference" "C52" (id 0) (at 217.17 95.25 90))
    (property "Value" "4n7" (id 1) (at 217.17 97.79 90))
    (property "Footprint" "fixed_standard:C_0402_1005Metric_Pad0.74x0.62mm_HandSolder" (id 2) (at 213.36 102.5652 0)
      (effects (font (size 1.27 1.27)) hide)
    )
    (property "Datasheet" "~" (id 3) (at 217.17 101.6 0)
      (effects (font (size 1.27 1.27)) hide)
    )
    (property "Spec" "Cap Cer 4n7 25V 0402" (id 4) (at 217.17 101.6 0)
      (effects (font (size 1.27 1.27)) hide)
    )
    (property "JLC" "C1538" (id 5) (at 217.17 101.6 0)
      (effects (font (size 1.27 1.27)) hide)
    )
    (pin "1" (uuid 26ea17ab-ecf5-49b9-956c-983ad06f57e7))
    (pin "2" (uuid 2e9d21d8-383b-461f-8420-ea1cea0c4fe0))
  )

  (symbol (lib_id "Transistor_BJT:MMBT3906") (at 128.27 114.3 0) (mirror x) (unit 1)
    (in_bom yes) (on_board yes)
    (uuid 821e51ce-a47c-46cc-8f18-e64270c7019c)
    (property "Reference" "Q32" (id 0) (at 133.35 113.6649 0)
      (effects (font (size 1.27 1.27)) (justify left))
    )
    (property "Value" "2907" (id 1) (at 133.35 116.2049 0)
      (effects (font (size 1.27 1.27)) (justify left))
    )
    (property "Footprint" "os2_footprints:SOT-23" (id 2) (at 133.35 112.395 0)
      (effects (font (size 1.27 1.27) italic) (justify left) hide)
    )
    (property "Datasheet" "https://www.onsemi.com/pub/Collateral/2N3906-D.PDF" (id 3) (at 128.27 114.3 0)
      (effects (font (size 1.27 1.27)) (justify left) hide)
    )
    (property "BOM" "DK:1727-4045-1-ND" (id 4) (at 128.27 114.3 0)
      (effects (font (size 1.27 1.27)) hide)
    )
    (property "Spec" "PNP 40V SOT-23" (id 5) (at 128.27 114.3 0)
      (effects (font (size 1.27 1.27)) hide)
    )
    (property "JLC" "C8542" (id 6) (at 128.27 114.3 0)
      (effects (font (size 1.27 1.27)) hide)
    )
    (pin "1" (uuid 96a82eee-1b9e-4ae8-9bfb-d3bb66e7d544))
    (pin "2" (uuid be1d497d-4253-4b0a-89f9-156545772987))
    (pin "3" (uuid c5eae031-cbd6-486f-8c55-ea774ce58709))
  )

  (symbol (lib_id "Device:Q_Dual_NPN_NPN_E1B1C2E2B2C1") (at 143.51 107.95 0) (unit 1)
    (in_bom yes) (on_board yes)
    (uuid 0fa4d5f1-a5e6-4271-950b-03d32a84b31d)
    (property "Reference" "Q33" (id 0) (at 148.59 106.68 0)
      (effects (font (size 1.27 1.27)) (justify left))
    )
    (property "Value" "3904" (id 1) (at 148.59 109.22 0)
      (effects (font (size 1.27 1.27)) (justify left))
    )
    (property "Footprint" "Package_TO_SOT_SMD:SOT-363_SC-70-6" (id 2) (at 148.59 105.41 0)
      (effects (font (size 1.27 1.27)) hide)
    )
    (property "Datasheet" "~" (id 3) (at 143.51 107.95 0)
      (effects (font (size 1.27 1.27)) hide)
    )
    (property "Spec" "MMDT3904-7-F" (id 4) (at 143.51 107.95 0)
      (effects (font (size 1.27 1.27)) hide)
    )
    (property "BOM" "" (id 5) (at 143.51 107.95 0)
      (effects (font (size 1.27 1.27)) hide)
    )
    (property "JLC" "C83572" (id 6) (at 143.51 107.95 0)
      (effects (font (size 1.27 1.27)) hide)
    )
    (pin "1" (uuid d8b2eea4-c4b7-42ec-a5d4-e5107e89cfa7))
    (pin "2" (uuid ab915bb9-8661-40a7-931d-38cc89f03162))
    (pin "6" (uuid 922a800c-f4d5-4e1c-83ae-f7c6881f14e3))
  )

  (symbol (lib_id "Device:Q_Dual_NPN_NPN_E1B1C2E2B2C1") (at 172.72 87.63 0) (mirror y) (unit 2)
    (in_bom yes) (on_board yes)
    (uuid 86e24002-1f1d-4ad4-854b-8adcb6a93ef4)
    (property "Reference" "Q34" (id 0) (at 167.64 86.36 0)
      (effects (font (size 1.27 1.27)) (justify left))
    )
    (property "Value" "3904" (id 1) (at 167.64 88.9 0)
      (effects (font (size 1.27 1.27)) (justify left))
    )
    (property "Footprint" "Package_TO_SOT_SMD:SOT-363_SC-70-6" (id 2) (at 167.64 85.09 0)
      (effects (font (size 1.27 1.27)) hide)
    )
    (property "Datasheet" "~" (id 3) (at 172.72 87.63 0)
      (effects (font (size 1.27 1.27)) hide)
    )
    (property "Spec" "MMDT3904-7-F" (id 4) (at 172.72 87.63 0)
      (effects (font (size 1.27 1.27)) hide)
    )
    (property "BOM" "" (id 5) (at 172.72 87.63 0)
      (effects (font (size 1.27 1.27)) hide)
    )
    (property "JLC" "C83572" (id 6) (at 172.72 87.63 0)
      (effects (font (size 1.27 1.27)) hide)
    )
    (pin "3" (uuid d69b4744-ea59-4456-a655-7444ffdd452f))
    (pin "4" (uuid 98b9472e-3c53-47a6-9c0f-a51e4dfde0ce))
    (pin "5" (uuid b09b555b-cab1-458d-a6f5-993d95d3b10b))
  )

  (symbol (lib_id "Device:Q_Dual_NPN_NPN_E1B1C2E2B2C1") (at 176.53 81.28 0) (unit 1)
    (in_bom yes) (on_board yes)
    (uuid 24b1f01a-c92d-49fb-80e4-9b2f3d39b083)
    (property "Reference" "Q34" (id 0) (at 181.61 80.01 0)
      (effects (font (size 1.27 1.27)) (justify left))
    )
    (property "Value" "3904" (id 1) (at 181.61 82.55 0)
      (effects (font (size 1.27 1.27)) (justify left))
    )
    (property "Footprint" "Package_TO_SOT_SMD:SOT-363_SC-70-6" (id 2) (at 181.61 78.74 0)
      (effects (font (size 1.27 1.27)) hide)
    )
    (property "Datasheet" "~" (id 3) (at 176.53 81.28 0)
      (effects (font (size 1.27 1.27)) hide)
    )
    (property "Spec" "MMDT3904-7-F" (id 4) (at 176.53 81.28 0)
      (effects (font (size 1.27 1.27)) hide)
    )
    (property "BOM" "" (id 5) (at 176.53 81.28 0)
      (effects (font (size 1.27 1.27)) hide)
    )
    (property "JLC" "C83572" (id 6) (at 176.53 81.28 0)
      (effects (font (size 1.27 1.27)) hide)
    )
    (pin "1" (uuid f0255a60-002b-4cbc-b217-2dfa853dab06))
    (pin "2" (uuid eda7fa02-ae67-4c76-b9fa-4182e1d6cf50))
    (pin "6" (uuid 9e6e5c74-9658-4827-b6aa-97fe1da71c14))
  )

  (symbol (lib_id "Device:Q_Dual_NPN_NPN_E1B1C2E2B2C1") (at 198.12 73.66 0) (unit 2)
    (in_bom yes) (on_board yes)
    (uuid 1e5ff238-efa3-4584-a1f6-6a9ef2383ef3)
    (property "Reference" "Q33" (id 0) (at 203.2 72.39 0)
      (effects (font (size 1.27 1.27)) (justify left))
    )
    (property "Value" "3904" (id 1) (at 203.2 74.93 0)
      (effects (font (size 1.27 1.27)) (justify left))
    )
    (property "Footprint" "Package_TO_SOT_SMD:SOT-363_SC-70-6" (id 2) (at 203.2 71.12 0)
      (effects (font (size 1.27 1.27)) hide)
    )
    (property "Datasheet" "~" (id 3) (at 198.12 73.66 0)
      (effects (font (size 1.27 1.27)) hide)
    )
    (property "Spec" "MMDT3904-7-F" (id 4) (at 198.12 73.66 0)
      (effects (font (size 1.27 1.27)) hide)
    )
    (property "BOM" "" (id 5) (at 198.12 73.66 0)
      (effects (font (size 1.27 1.27)) hide)
    )
    (property "JLC" "C83572" (id 6) (at 198.12 73.66 0)
      (effects (font (size 1.27 1.27)) hide)
    )
    (pin "3" (uuid dbc9f92b-259c-4302-a1aa-aeaccbbf266f))
    (pin "4" (uuid e8641d45-460c-4002-a152-fd3a20fb9bb6))
    (pin "5" (uuid d441c372-faab-4897-88bb-7ddee1dd5ea9))
  )

  (symbol (lib_id "Transistor_BJT:MMBT3906") (at 219.71 67.31 0) (mirror x) (unit 1)
    (in_bom yes) (on_board yes)
    (uuid cb6d0388-6f33-473f-9285-efe4d637715e)
    (property "Reference" "Q35" (id 0) (at 224.79 66.6749 0)
      (effects (font (size 1.27 1.27)) (justify left))
    )
    (property "Value" "5401" (id 1) (at 224.79 69.2149 0)
      (effects (font (size 1.27 1.27)) (justify left))
    )
    (property "Footprint" "os2_footprints:SOT-23" (id 2) (at 224.79 65.405 0)
      (effects (font (size 1.27 1.27) italic) (justify left) hide)
    )
    (property "Datasheet" "https://www.onsemi.com/pub/Collateral/2N3906-D.PDF" (id 3) (at 219.71 67.31 0)
      (effects (font (size 1.27 1.27)) (justify left) hide)
    )
    (property "BOM" "DK:MMBT5401-TPCT-ND" (id 4) (at 219.71 67.31 0)
      (effects (font (size 1.27 1.27)) hide)
    )
    (property "Spec" "PNP 150V SOT-23" (id 5) (at 219.71 67.31 0)
      (effects (font (size 1.27 1.27)) hide)
    )
    (property "JLC" "C8326" (id 6) (at 219.71 67.31 0)
      (effects (font (size 1.27 1.27)) hide)
    )
    (pin "1" (uuid e24092fa-12f1-4c70-bdf2-c04116dbe1aa))
    (pin "2" (uuid 92a0708c-61de-49bc-92b7-5c72aca78b55))
    (pin "3" (uuid ab475e06-09d2-4c25-ad74-7867b2ec5a38))
  )

  (symbol (lib_id "Transistor_BJT:MMBTA42") (at 222.25 116.84 270) (unit 1)
    (in_bom yes) (on_board yes)
    (uuid 994b35a8-56bd-4c6f-b317-9c8706ef5f9e)
    (property "Reference" "Q36" (id 0) (at 222.25 123.19 90))
    (property "Value" "MMBTA42" (id 1) (at 222.25 125.73 90))
    (property "Footprint" "os2_footprints:SOT-23" (id 2) (at 220.345 121.92 0)
      (effects (font (size 1.27 1.27) italic) (justify left) hide)
    )
    (property "Datasheet" "https://www.onsemi.com/pub/Collateral/MMBTA42LT1-D.PDF" (id 3) (at 222.25 116.84 0)
      (effects (font (size 1.27 1.27)) (justify left) hide)
    )
    (property "BOM" "DK:MMBTA42-FDICT-ND" (id 4) (at 222.25 116.84 90)
      (effects (font (size 1.27 1.27)) hide)
    )
    (property "Spec" "NPN 300V SOT-23" (id 5) (at 222.25 116.84 0)
      (effects (font (size 1.27 1.27)) hide)
    )
    (pin "1" (uuid 2a8f9240-724d-4d01-8b5d-9871d6d5295d))
    (pin "2" (uuid 570c0ce1-d609-4629-aacc-ece4d428b7bb))
    (pin "3" (uuid 1536cded-1549-44e0-9241-3e2fa2111e1a))
  )

  (symbol (lib_id "Power_Protection:SP0505BAHT") (at 88.9 154.94 0) (unit 1)
    (in_bom yes) (on_board yes)
    (uuid afddba8a-b88c-4041-8f5f-d5008ccf11f8)
    (property "Reference" "TVS4" (id 0) (at 96.52 152.4 0)
      (effects (font (size 1.27 1.27)) (justify left))
    )
    (property "Value" "SMF05CT1G" (id 1) (at 96.52 154.305 0)
      (effects (font (size 1.27 1.27)) (justify left))
    )
    (property "Footprint" "Package_TO_SOT_SMD:SOT-363_SC-70-6" (id 2) (at 96.52 156.21 0)
      (effects (font (size 1.27 1.27)) (justify left) hide)
    )
    (property "Datasheet" "" (id 3) (at 92.075 151.765 0)
      (effects (font (size 1.27 1.27)) hide)
    )
    (property "JLC" "C15879" (id 4) (at 88.9 154.94 0)
      (effects (font (size 1.27 1.27)) hide)
    )
    (pin "2" (uuid 94782eea-42e7-4567-b9f7-46be7692ba90))
    (pin "1" (uuid ab52c27e-ef5b-4d5d-ba20-1861910f2e4b))
    (pin "3" (uuid c321fd63-090b-4919-ac15-62d1995e1107))
    (pin "4" (uuid 59dce849-c508-422a-bca7-c4acd2d6d198))
    (pin "5" (uuid cb194e13-e5c4-48c4-9e51-d569623badb5))
    (pin "6" (uuid 7e0bc7ee-5ba5-4266-9e94-6481c8c19b00))
  )

  (symbol (lib_id "Potentiometer_Digital:MCP4017-xxxxLT") (at 58.42 130.81 0) (unit 1)
    (in_bom yes) (on_board yes)
    (uuid c0051006-3609-44b6-ae25-52d90be94b18)
    (property "Reference" "U5" (id 0) (at 63.5 118.11 0))
    (property "Value" "5k" (id 1) (at 63.5 120.65 0))
    (property "Footprint" "Package_TO_SOT_SMD:SOT-363_SC-70-6" (id 2) (at 59.69 137.16 0)
      (effects (font (size 1.27 1.27)) (justify left) hide)
    )
    (property "Datasheet" "http://ww1.microchip.com/downloads/en/DeviceDoc/22147a.pdf" (id 3) (at 59.69 144.78 0)
      (effects (font (size 1.27 1.27)) (justify left) hide)
    )
    (property "Spec" "IC DGTL POT 5KOHM 128TAP SC70-6" (id 4) (at 58.42 130.81 0)
      (effects (font (size 1.27 1.27)) hide)
    )
    (property "BOM" "DK:MCP4017T-502E/LTCT-ND" (id 5) (at 58.42 130.81 0)
      (effects (font (size 1.27 1.27)) hide)
    )
    (pin "1" (uuid 9231e983-5711-484d-a563-38d469821aa8))
    (pin "2" (uuid 36db43b2-5eca-4357-98ac-d7e64a6da795))
    (pin "3" (uuid bbabd9e3-7a5f-4b7b-9617-4a6593c4dd61))
    (pin "4" (uuid b43c2820-5f68-423f-a198-8f093c3f154e))
    (pin "5" (uuid fb886dfb-d01a-4e00-a2f7-2c41d372ca16))
    (pin "6" (uuid 26556106-555a-4161-937f-05dee610e597))
  )
)
