Ref,Val,Package,PosX,PosY,Rot,Side
"FID6","Fiducial","Fiducial_1mm_Dia_2.54mm_Outer_CopperTop",-216.000000,-110.250000,0.000000,bottom
"FID7","Fiducial","Fiducial_1mm_Dia_2.54mm_Outer_CopperTop",-180.000000,-77.250000,0.000000,bottom
"FID8","Fiducial","Fiducial_1mm_Dia_2.54mm_Outer_CopperTop",-139.000000,-93.250000,0.000000,bottom
"J3","VGA","TE_84952-5_1x05-1MP_P1.0mm_Horizontal",-141.100000,-114.450000,180.000000,bottom
"R74","100k","R_1206_3216Metric_Pad1.30x1.75mm_HandSolder",-177.400000,-86.650000,-90.000000,bottom
"R75","100k","R_1206_3216Metric_Pad1.30x1.75mm_HandSolder",-177.400000,-91.850000,-90.000000,bottom
"R76","100k","R_1206_3216Metric_Pad1.30x1.75mm_HandSolder",-177.400000,-97.450000,-90.000000,bottom
"R77","100k","R_1206_3216Metric_Pad1.30x1.75mm_HandSolder",-177.400000,-102.650000,-90.000000,bottom
"R78","22k","R_1206_3216Metric_Pad1.30x1.75mm_HandSolder",-173.400000,-89.250000,180.000000,bottom
"R79","22k","R_1206_3216Metric_Pad1.30x1.75mm_HandSolder",-173.400000,-100.050000,180.000000,bottom
"R80","220k","R_1206_3216Metric_Pad1.30x1.75mm_HandSolder",-173.400000,-85.450000,180.000000,bottom
"R81","220k","R_1206_3216Metric_Pad1.30x1.75mm_HandSolder",-173.400000,-93.050000,0.000000,bottom
"R82","220k","R_1206_3216Metric_Pad1.30x1.75mm_HandSolder",-173.400000,-96.250000,180.000000,bottom
"R83","220k","R_1206_3216Metric_Pad1.30x1.75mm_HandSolder",-173.400000,-103.850000,0.000000,bottom
"R84","1M","R_0805_2012Metric_Pad1.20x1.40mm_HandSolder",-183.400000,-88.250000,180.000000,bottom
"R85","1M","R_0805_2012Metric_Pad1.20x1.40mm_HandSolder",-183.400000,-90.250000,180.000000,bottom
"R86","1M","R_0805_2012Metric_Pad1.20x1.40mm_HandSolder",-183.400000,-99.050000,180.000000,bottom
"R87","1M","R_0805_2012Metric_Pad1.20x1.40mm_HandSolder",-183.400000,-101.050000,180.000000,bottom
"R88","10k","R_1206_3216Metric_Pad1.30x1.75mm_HandSolder",-183.400000,-96.250000,0.000000,bottom
"R89","10k","R_1206_3216Metric_Pad1.30x1.75mm_HandSolder",-183.400000,-85.450000,0.000000,bottom
"R90","10k","R_1206_3216Metric_Pad1.30x1.75mm_HandSolder",-183.400000,-93.050000,0.000000,bottom
"R91","10k","R_1206_3216Metric_Pad1.30x1.75mm_HandSolder",-183.400000,-103.850000,0.000000,bottom
"R92","680k","R_0805_2012Metric_Pad1.20x1.40mm_HandSolder",-188.200000,-85.250000,180.000000,bottom
"R93","680k","R_0805_2012Metric_Pad1.20x1.40mm_HandSolder",-188.200000,-93.250000,180.000000,bottom
"R94","680k","R_0805_2012Metric_Pad1.20x1.40mm_HandSolder",-188.200000,-96.050000,180.000000,bottom
"R95","680k","R_0805_2012Metric_Pad1.20x1.40mm_HandSolder",-188.200000,-104.050000,180.000000,bottom
"R98","1M","R_0805_2012Metric_Pad1.20x1.40mm_HandSolder",-190.400000,-88.050000,180.000000,bottom
"R99","1M","R_0805_2012Metric_Pad1.20x1.40mm_HandSolder",-190.400000,-90.450000,0.000000,bottom
"R100","1M","R_0805_2012Metric_Pad1.20x1.40mm_HandSolder",-190.400000,-98.850000,180.000000,bottom
"R101","1M","R_0805_2012Metric_Pad1.20x1.40mm_HandSolder",-190.400000,-101.250000,0.000000,bottom
"TP1","DBG_PAR","Molex_502244-1530_1x15-1MP_P0.5mm_Horizontal",-91.400000,-109.250000,90.000000,bottom
