M48
; DRILL file {KiCad 5.99.0-unknown-9987+g41839f7e3f+buster} date Sun Mar 28 15:07:15 2021
; FORMAT={-:-/ absolute / inch / decimal}
; #@! TF.CreationDate,2021-03-28T15:07:15-06:00
; #@! TF.GenerationSoftware,Kicad,Pcbnew,5.99.0-unknown-9987+g41839f7e3f+buster
; #@! TF.FileFunction,NonPlated,1,4,NPTH
FMAT,2
INCH
; #@! TA.AperFunction,ComponentDrill,NonPlated,NPTH
T1C0.0454
; #@! TA.AperFunction,ComponentDrill,NonPlated,NPTH
T2C0.1260
%
G90
G05
T1
; not plated pad hole
X3.4252Y-4.7736
X3.4646Y-2.8445
X8.5433Y-4.7343
T2
X3.3071Y-2.9134
X3.5827Y-4.685
X7.7756Y-2.9134
X7.7756Y-4.685
T0
M30
